###  Designed and coded by Labstein  ###

cestirmark_1 = {
	slot = 1
	generic = no
	ai = yes
	potential = {
		tag = H33
	}
	has_country_shield = yes

	H33_dream_come_true = {
		icon = mission_whisper
		position = 4
		required_missions = { 
			H33_secure_path_of_truth
		}

		provinces_to_highlight = {
			OR = {
				province_id = 1031
				province_id = 1021
				province_id = 1126
				province_id = 1952
				province_id = 1044
			}
			NOT = { controlled_by = ROOT }
		}

		trigger = {
			#Venainé
			1031 = { controlled_by = ROOT }
			calc_true_if = {
				custom_trigger_tooltip = {
					tooltip = H33_boek_secrets_tt
					#Tehaneksom
					1021 = {
						OR = {
							controlled_by = ROOT
							owner = { has_spy_network_from = { who = ROOT value = 25 } }
						}
					}
					#Yanekin
					1126 = {
						OR = {
							controlled_by = ROOT
							owner = { has_spy_network_from = { who = ROOT value = 25 } }
						}
					}
					#Jayekmoot
					1952 = {
						OR = {
							controlled_by = ROOT
							owner = { has_spy_network_from = { who = ROOT value = 25 } }
						}
					}
					#Boek'Taraw
					1044 = {
						OR = {
							controlled_by = ROOT
							owner = { has_spy_network_from = { who = ROOT value = 25 } }
						}
					}
				}
				amount = 3
			}
		}

		effect = {
			country_event = {
				id = flavor_cestirmark.100
				days = 7
			}
		}
	}

	H33_the_vincenton_society = { #for some reason if I remove 'the', it uses livonian loc???
		icon = mission_science
		position = 5
		required_missions = { 
			H33_dream_come_true
		}

		provinces_to_highlight = {
			province_id = 1019
			NOT = { printing_press = 100 }
		}

		trigger = {
			OR = {
				if = {
					limit = { has_dlc = "Rule Britannia" }
					innovativeness = 20
				}
				innovativeness_ideas = 2
			}
			custom_trigger_tooltip = {
				tooltip = H33_ravelian_society_enabled_tt
				has_global_flag = ravelian_society_founded
			}
			1019 = {  #Vincenton
				owned_by = ROOT
				printing_press = 100
				custom_trigger_tooltip = {
					tooltip = H33_not_building_anything_tt
					NOT = { has_construction = building }
					NOT = { has_construction = core }
					NOT = { has_construction = culture }
					NOT = { has_construction = missionary }
					NOT = { has_colonist = yes }
				}
			}
			treasury = 300
		}

		effect = {
			add_disaster_progress = {
				disaster = cestirmark_shadow_war
				value = -50
			}
			1019 = { #Vincenton
				if = {
					limit = { NOT = { is_religion_enabled = ravelian } }
					add_permanent_province_modifier = {
						name = ravelian_society
						duration = -1
						}
				}
				add_building_construction = {
					building = university
					speed = 1
					cost = 1
				}
			}
			define_advisor = {
				type = spymaster
				skill = 2
				location = 1019
				female = yes
				name = "Cecille Faden"
				discount = yes
			}
		}
	}

	H33_found_the_bureau = {
		icon = deal_with_the_illuminati
		position = 6
		required_missions = { 
			H33_the_vincenton_society
		}

		provinces_to_highlight = {
			colonial_region = colonial_noruin
			trade_goods = precursor_relics
		}

		trigger = {
			estate_loyalty = {
				estate = estate_adventurers
				loyalty = 60
			}
			has_estate_privilege = estate_adventurers_organization_licensed_adventurers
			has_estate_privilege = estate_adventurers_sponsor_monster_hunters
			OR = {
				precursor_relics = 1
				any_ally = {
					precursor_relics = 1
				}
			}
			crown_land_share = 40
		}

		effect = {
			add_disaster_progress = {
				disaster = cestirmark_shadow_war
				value = -50
			}
			set_estate_privilege = estate_adventurers_organization_scp_bureau
			give_estate_land_share_gigantic = { estate = estate_adventurers }
			hidden_effect = {
				1871 = { #Cestirmark (province)
					if = {
						limit = { NOT = { is_religion_enabled = ravelian } }
						add_permanent_province_modifier = {
							name = ravelian_society
							duration = -1
							}
					}
				}
			}
		}
	}

	H33_implement_safety_procedures = {
		icon = plague_doctor_training
		position = 7
		required_missions = { 
			H33_found_the_bureau
		}

		provinces_to_highlight = {
			province_id = 1019
			NOT = { has_building = mage_tower }
		}

		trigger = {
			estate_loyalty = {
				estate = estate_mages
				loyalty = 60
			}
			has_estate_privilege = estate_mages_organization_state
			NOT = { has_estate_privilege = estate_mages_reduced_research_regulations }
			1019 = { has_building = mage_tower } #Vincenton
		}

		effect = {
			add_disaster_progress = {
				disaster = cestirmark_shadow_war
				value = -50
			}
			custom_tooltip = H33_monster_hunters_no_penalty_tt
			set_country_flag = monster_hunters_no_penalty
			hidden_effect = {
				cestirmark_area = {
					if = {
						limit = { NOT = { is_religion_enabled = ravelian } }
						add_permanent_province_modifier = {
							name = ravelian_society
							duration = -1
							}
					}
				}
			}
		}
	}

	H33_secured_and_neutralized = {
		icon = mission_the_covenant
		position = 8
		required_missions = { 
			H33_implement_safety_procedures
		}

		trigger = {
			has_any_disaster = no
			stability = 3
			
			advisor = spymaster
			custom_trigger_tooltip = {
				tooltip = H33_medium_internal_scrying_tt
				OR = {
					has_country_modifier = magic_realm_divination_scrying_internal_dissidents
					has_country_modifier = magic_estate_scrying_internal_dissidents_2
					has_country_modifier = magic_estate_scrying_internal_dissidents_3
				}
			}
			1019 = { owned_by = ROOT }
			if = {
				limit = { NOT = { has_dlc = "Leviathan" } }
				treasury = 2500
				OR = {
					has_idea_group = spy_ideas
					religion = ravelian
				}
			}
		}

		effect = {
			custom_tooltip = H33_disable_shadow_war_tt
			
			if = {
				limit = { has_dlc = "Leviathan" }
				1019 = {
					set_province_flag = vincenton_warehouse
					add_great_project = {
						type = scp_bureau_hq
						instant = yes
					}
				}
			} else = {
				1019 = {
					add_permanent_province_modifier = {
						name = H33_scp_hq_non_leviathan
						duration = -1
					}
				}
			}
			hidden_effect = {
				cestirmark_proper_coast = {
					if = {
						limit = { NOT = { is_religion_enabled = ravelian } }
						add_permanent_province_modifier = {
							name = ravelian_society
							duration = -1
						}
					}
				}
			}
		}
	}
}

cestirmark_2 = {
	slot = 2
	generic = no
	ai = yes
	potential = {
		tag = H33
	}
	has_country_shield = yes

	H33_finalize_frame_of_government = {
		icon = mission_plc_governance_act
		position = 1
		required_missions = { 
			
		}

		trigger = {
			republican_tradition = 90
			custom_trigger_tooltip = {
				tooltip = H33_5_parliament_seats_tt
				current_size_of_parliament = 5
			}
			estate_loyalty = {
				estate = estate_burghers
				loyalty = 60
			}
		}

		effect = {
			add_stability_or_adm_power = yes
			if = {
				limit = { ruler_has_max_personalities = no }
				add_ruler_personality = reformist_personality
			}
		}
	}

	H33_welcome_captain_vincen = {
		icon = venture_captains
		position = 2
		required_missions = { 
			H33_finalize_frame_of_government
		}

		provinces_to_highlight = {
			province_id = 1019
			OR = {
				has_tax_building_trigger = no
				has_manpower_building_trigger = no
			}
		}

		trigger = {
			OR = {
				colonial_noruin = {
					type = all
					has_discovered = ROOT
				}
				custom_trigger_tooltip = {
					tooltip = H33_god_fragment_found_tt
					has_global_flag = god_fragment_found
				}
			}
			owns_core_province = 1019 #Vincenton (this is the origin of the name btw)
			1019 = {
				has_tax_building_trigger = yes
				has_manpower_building_trigger = yes
			}
			estate_influence = {
				estate = estate_adventurers
				influence = 25
			}
		}

		effect = {
			1019 = { #Vincenton (this is the origin of the name btw)
				add_province_modifier = { 
					name = adventurers_city_development
					duration = 7300
				}
			}
			give_estate_land_share_gigantic = { estate = estate_adventurers }
			define_advisor = {
				type = grand_captain
				name = "Vincen Godsighter"
				skill = 2
				location = 1019
				culture = anbenncoster
				discount = yes
			}
		}
	}

	H33_secure_path_of_truth = {
		icon = mission_forest_pilgrim
		position = 3
		required_missions = { 
			H33_welcome_captain_vincen
		}

		provinces_to_highlight = {
			OR = {
				AND = {
					province_id = 1019
					OR = {
						has_dock_building_trigger = no
						has_forcelimit_building_trigger = no
					}
				}
				AND = {
					province_id = 1991
					has_fort_building_trigger = no
				}
			}
		}

		trigger = {
			1019 = { #Vincenton
				has_dock_building_trigger = yes
				has_forcelimit_building_trigger = yes
			}
			1991 = { has_fort_building_trigger = yes } #Fernwell
		}

		effect = {
			add_country_modifier = {
				name = innovative_modifier
				duration = 5475
			}
			if = {
				limit = { NOT = { 1019 = { trade_goods = gold } } }
				1019 = { change_trade_goods = paper }
			}
		}
	}

	H33_common_trade_policy = {
		icon = adjust_the_general_means
		position = 4
		required_missions = { 
			H33_concord_in_trollsbay
			H33_secure_path_of_truth
		}

		provinces_to_highlight = {
			is_capital = yes
			owner = { has_country_flag = trollsbay_concord_member }
		}

		trigger = {
			cestirmark_no_concord_influence = yes
			all_known_country = {
				custom_trigger_tooltip = {
					tooltip = H33_concord_favors_tt
					if = {
						limit = { has_country_flag = trollsbay_concord_member }
						owes_favors = { 
							who = ROOT 
							value = 10 
						}
					}
				}
				custom_trigger_tooltip = {
					tooltip = H33_concord_most_trade_ships_tt
					if = {
						limit = { has_country_flag = trollsbay_concord_member }
						NOT = { num_of_light_ship = ROOT }
					}
				}
			}
			custom_trigger_tooltip = { #Paradox tooltip is broken as of now
				tooltip = H33_merchant_navy_doctrine_tt
				has_naval_doctrine = merchant_navy
			}
			#Trollsbay node
			1519 = { trade_node_value = 10 }
		}

		effect = {
			country_event = { id = flavor_cestirmark.202 }
			define_advisor = {
				type = trader
				skill = 3
				discount = yes
			}
			every_known_country = {
				limit = { has_country_flag = trollsbay_concord_member }
				ROOT = {
					add_favors = {
						who = PREV
						amount = -10
					}
				}
				country_event = { id = flavor_cestirmark.203 }
			}
		}
	}

	H33_bay_without_borders = {
		icon = mission_discussion_arch
		position = 5
		required_missions = { 
			H33_common_trade_policy
		}

		provinces_to_highlight = {
			is_capital = yes
			owner = { has_country_flag = trollsbay_concord_member }
		}

		trigger = {
			cestirmark_no_concord_influence = yes
			all_known_country = {
				custom_trigger_tooltip = {
					tooltip = H33_concord_favors_tt
					if = {
						limit = { has_country_flag = trollsbay_concord_member }
						owes_favors = { 
							who = ROOT 
							value = 10 
						}
					}
				}
				custom_trigger_tooltip = {
					tooltip = H33_concord_all_access_tt
					if = {
						limit = { has_country_flag = trollsbay_concord_member }
						gives_military_access_to = ROOT
					}
				}
			}
			trading_policy_in_node = {
				node = 1519 #Trollsbay node
				policy = establish_communities
			}
		}

		effect = {
			country_event = { id = flavor_cestirmark.202 }
			capital_scope = {
				add_halfling_minority_size_effect = yes
				add_halfling_minority_size_effect = yes
			}			
			set_country_flag = concord_no_borders
			every_known_country = {
				limit = { has_country_flag = trollsbay_concord_member }
				ROOT = {
					add_favors = {
						who = PREV
						amount = -10
					}
				}
				country_event = { id = flavor_cestirmark.204 }
			}
		}
	}

	H33_trollsbayer_universalism = {
		icon = immaculate_government
		position = 6
		required_missions = { 
			H33_bay_without_borders
			H33_the_vincenton_society
		}

		provinces_to_highlight = {
			is_capital = yes
			owner = { has_country_flag = trollsbay_concord_member }
		}

		trigger = {
			cestirmark_no_concord_influence = yes
			all_known_country = {
				custom_trigger_tooltip = {
					tooltip = H33_concord_favors_tt
					if = {
						limit = { has_country_flag = trollsbay_concord_member }
						owes_favors = { 
							who = ROOT 
							value = 10 
						}
					}
				}
				custom_trigger_tooltip = {
					tooltip = H33_concord_switched_culture_tt
					if = {
						limit = { has_country_flag = trollsbay_concord_member }
						OR = {
							culture_group = trollsbayer
							culture = towerfoot_halfling
							current_age = age_of_absolutism #in case one of them refuses to switch culture for some reason
							current_age = age_of_revolutions
						}
					}
				}
				custom_trigger_tooltip = {
					tooltip = H33_concord_more_prestige_tt
					if = {
						limit = { has_country_flag = trollsbay_concord_member }
						OR = {
							H33 = { has_active_policy = diplomatic_cooperation_act }
							NOT = { prestige = ROOT }
						}
					}
				}
			}
		}

		effect = {
			country_event = { id = flavor_cestirmark.202 }
			if = {
				limit = { has_dlc = "Mandate of Heaven" }
				trollsbay_region = {
					add_prosperity = 50
				}
			} else = {
				add_stability_or_adm_power = yes
			}
			every_known_country = {
				limit = { has_country_flag = trollsbay_concord_member }
				ROOT = {
					add_favors = {
						who = PREV
						amount = -10
					}
				}
				country_event = { id = flavor_cestirmark.205 }
			}
		}
	}

	H33_promote_rationalism = {
		icon = mission_pol_polish_renaissance
		position = 7
		required_missions = { 
			H33_found_the_bureau
			H33_trollsbayer_universalism
		}

		trigger = {
			religion = ravelian
			num_of_owned_provinces_with = {
				region = trollsbay_region
				religion = ravelian
				has_building = cathedral
				has_building = university
				value = 10
			}
		}

		effect = {
			add_government_reform = rectors_in_the_bureau_reform
		}
	}

	H33_sort_out_archprovostship = {
		icon = mission_religious
		position = 8
		required_missions = { 
			H33_promote_rationalism
		}

		provinces_to_highlight = {
			OR = {
				province_id = 1019
				province_id = 1036
			}
		}

		trigger = {
			dominant_religion = ravelian
			1019 = {  religion = ravelian } #Vincenton
			1036 = {  religion = ravelian } #Isobel Island
			OR = {
				is_papal_controller = yes
				invested_papal_influence = 100
			}
		}
		effect = {
			1019 = {
				add_cardinal = yes
				custom_tooltip = H33_permanent_veridical_tt
				add_province_triggered_modifier = H33_dual_archprovosts
			}
			1036 = {
				add_cardinal = yes
				custom_tooltip = H33_permanent_veridical_tt
				add_province_triggered_modifier = H33_dual_archprovosts
			}
		}
	}
}

cestirmark_3 = {
	slot = 3
	generic = no
	ai = yes
	potential = {
		tag = H33
	}
	has_country_shield = yes

	H33_varils_fancyful_dream = {
		icon = mission_diplomacy_missive
		position = 1
		required_missions = { 

		}

		provinces_to_highlight = {
			is_capital = yes
			owner = { 
				capital_scope = { region = trollsbay_region }
				is_colonial_nation = no
				OR = { #to make obvious who counts
					technology_group = tech_cannorian
					technology_group = tech_halfling
					technology_group = tech_bulwari
				}
			}
		}

		trigger = {
			calc_true_if = {
				all_ally = {
					capital_scope = { region = trollsbay_region }
					is_colonial_nation = no
					OR = { #to make obvious who counts
						technology_group = tech_cannorian
						technology_group = tech_halfling
						technology_group = tech_bulwari
					}
					has_opinion = {
						who = ROOT
						value = 120
					}
				}
				amount = 2
			}
		}

		effect = {
			add_ruler_modifier = {
				name = H33_dream_of_concord
			}
		}
	}

	H33_concord_in_trollsbay = {
		icon = mission_diplomatic_relation
		position = 3
		required_missions = { 
			H33_varils_fancyful_dream
		}

		provinces_to_highlight = {
			is_capital = yes
			owner = { 
				capital_scope = { region = trollsbay_region }
				is_colonial_nation = no
				OR = { #to make obvious who counts
					technology_group = tech_cannorian
					technology_group = tech_halfling
					technology_group = tech_bulwari
				}
				OR = {
					NOT = { alliance_with = ROOT }
					NOT = { 
						has_spy_network_from = {
						who = ROOT
						value = 50
						} 
					}
				}
			}
		}

		trigger = {
			OR = {
				has_ruler_modifier = H33_dream_of_concord
				H33_ideas = 4
			}
			custom_trigger_tooltip = {
				tooltip = H33_concord_can_create_tt
				NOT = {
					any_known_country = {
						capital_scope = { region = trollsbay_region }
						is_colonial_nation = no
						OR = { #to make obvious who counts
							technology_group = tech_cannorian
							technology_group = tech_halfling
							technology_group = tech_bulwari
						}
						is_subject = no #can't ally nor have spy network in subjects
						NOT = {
							OR = {
								alliance_with = ROOT
								has_spy_network_from = {
									who = ROOT
									value = 50
								}
							}
						}
						
					}
				}
			}
			OR = {
				AND = {
					has_idea_group = diplomatic_ideas
					diplomatic_ideas = 5
				}
				AND = {
					diplomat = 3
					dip_power = 100
				}
			}
		}

		effect = {
			if = {
				limit = {
					NOT = { full_idea_group = diplomatic_ideas }
				}
				dip_power_cost = 100
			}
			custom_tooltip = H33_concord_created_tt
			country_event = { id = flavor_cestirmark.200 }
		}
	}

	H33_centralize_concord_politics = {
		icon = mission_rb_the_bank_of_scotland
		position = 5
		required_missions = { 
			H33_concord_in_trollsbay
		}

		provinces_to_highlight = {
			is_capital = yes
			owner = { has_country_flag = trollsbay_concord_member }
		}

		trigger = {
			cestirmark_no_concord_influence = yes
			all_known_country = {
				custom_trigger_tooltip = {
					tooltip = H33_concord_100_relations_tt
					if = {
						limit = { has_country_flag = trollsbay_concord_member }
						has_opinion_modifier = { who = ROOT modifier = improved_relation value = 100 }
					}
				}
			}
			1871 = { has_building = state_house } #Cestirmark (province)
			monthly_dip = 12
			treasury = 200
		}

		effect = {
			add_treasury = -200
			add_adm_power = 15
			add_dip_power = 15
			add_mil_power = 15
			concord_influence_effect = { member = cestirmark }
			1871 = { add_building = courthouse }
			every_known_country = {
				limit = { has_country_flag = trollsbay_concord_member }
				country_event = { id = flavor_cestirmark.209 }
			}
			add_government_reform = concord_administration_reform
		}
	}

	H33_varils_not_so_fancyful_dream = {
		icon = all_bases_covered
		position = 7
		required_missions = { 
			H33_trollsbayer_universalism
			H33_centralize_concord_politics
			H33_anti_colonial_policy
		}

		provinces_to_highlight = {
			is_capital = yes
			owner = { has_country_flag = trollsbay_concord_member }
		}

		trigger = {
			cestirmark_no_concord_influence = yes
			all_known_country = {
				custom_trigger_tooltip = {
					tooltip = H33_concord_lots_of_favors_tt
					if = {
						limit = { has_country_flag = trollsbay_concord_member }
						owes_favors = { 
							who = ROOT 
							value = 25
						}
					}
				}
			}
			adm_power = 100
			dip_power = 100
			mil_power = 100
		}

		effect = {
			custom_tooltip = H33_concord_need_trust_tt
			every_known_country = {
				limit = { has_country_flag = trollsbay_concord_member }
				ROOT = {
					add_favors = {
						who = PREV
						amount = -25
					}
				}
			}
			adm_power_cost = 100
			dip_power_cost = 100
			mil_power_cost = 100
			country_event = { id = flavor_cestirmark.210 }
		}
	}

	H33_more_perfect_concord = {
		icon = mission_trollsbay
		position = 9
		required_missions = { 
			H33_secured_and_neutralized
			H33_varils_not_so_fancyful_dream
			H33_stop_trollsbay_plundering
			H33_livable_cities
		}

		provinces_to_highlight = {
			is_capital = yes
			owner = { has_country_flag = trollsbay_concord_member }
		}

		trigger = {
			hidden_trigger = {
				NOT = { has_country_flag = concord_unification_debate }
			}
			OR = {
				dip = 6
				AND = {
					dip = 4
					OR = {
						ruler_has_personality = silver_tongue_personality
						ruler_has_personality = charismatic_negotiator_personality
					}
				}
			}
			is_at_war = no
			NOT = {
				any_known_country = {
					custom_trigger_tooltip = {
						tooltip = H33_is_concord_member_tt
						has_country_flag = trollsbay_concord_member
					}
					is_at_war = yes
				}
			}
			adm_power = 250
			dip_power = 250
			mil_power = 250
		}

		effect = {
			adm_power_cost = 250
			dip_power_cost = 250
			mil_power_cost = 250
			custom_tooltip = H33_union_creation_tt
			country_event = { id = flavor_cestirmark.220 }
			hidden_effect = { #reset won parliament debates for last mission
				set_variable = {
					which = issues_passed
					value = 0
				}
			}
		}
	}
}

cestirmark_4 = {
	slot = 4
	generic = no
	ai = yes
	potential = {
		tag = H33
	}
	has_country_shield = yes

	H33_race_for_the_bay = {
		icon = mission_settlers_north_america
		position = 1
		required_missions = { 
			
		}

		provinces_to_highlight = {
			area = cestirmark_area
		}

		trigger = {
			cestirmark_area = {
				type = all
				owned_by = ROOT
			}
		}

		effect = {
			set_capital = 1871 #Cestirmark (province)
			cestirmark_area = {
				add_permanent_claim = ROOT
				hidden_effect = {
					if = {
						limit = { NOT = { culture = ROOT } }
						change_culture = ROOT
						change_religion = ROOT
						add_devastation = 30
					}
				}
			}
			vincenton_area = {
				limit = {
					NOT = { owned_by = ROOT }
				}
				add_permanent_claim = ROOT
			}
			1127 = { add_permanent_claim = ROOT } #Elderspring
			1991 = { add_permanent_claim = ROOT } #Fernwell
			2449 = { add_permanent_claim = ROOT } #Pelleton
			
		}
	}

	H33_protect_yanek = {
		icon = trade_with_the_natives
		position = 2
		required_missions = { 
			H33_race_for_the_bay
		}

		provinces_to_highlight = {
			OR = {
				AND = {
					province_id = 1018
					has_fort_building_trigger = no
				}
				AND = {
					OR = {
						province_id = 2459
						province_id = 1012
						province_id = 1119
					}
					OR = {
						native_size = 1
						is_empty = yes
					}
				}
			}
		}

		trigger = {
			1018 = { has_fort_building_trigger = yes } #Bushwall
			if = {
				#Yaneks are friends, not food
				limit = { G04 = { exists = yes } }
				2459 = { OR = { NOT = { native_size = 1 } is_empty = no } } #Imelvars
				1012 = { OR = { NOT = { native_size = 1 } is_empty = no } } #Lunsunvars
				1119 = { OR = { NOT = { native_size = 1 } is_empty = no } } #Abhennard
			} else = {
				#All Yanek's starting land, including tribal land
				yanekin_area = {
					type = all
					country_or_non_sovereign_subject_holds = ROOT
				}
				bentwaters_area = {
					type = all
					country_or_non_sovereign_subject_holds = ROOT
				}
				1995 = { country_or_non_sovereign_subject_holds = ROOT }
				2459 = { country_or_non_sovereign_subject_holds = ROOT }
			}
			
		}

		effect = {
			#Elderspring excluded intentionally
			yanekin_area = {
				add_core = G04
				change_culture = boek
				change_religion = dotimism
			}
			1129 = { 
				add_core = G04
				change_culture = boek
				change_religion = dotimism
			}
			1995 = {
				add_core = G04
				change_culture = boek
				change_religion = dotimism
			}
			2459 = {
				add_core = G04
				change_culture = boek
				change_religion = dotimism
			}
			if = {
				limit = { G04 = { exists = yes } }
				custom_tooltip = H33_yanek_effect_tt
				G04 = {	country_event = { id = flavor_cestirmark.101 days = 10  } } #Yanek
			} else = {
				large_increase_of_ruinborn_tolerance_effect = yes
				hidden_effect = { #Wouldn't make any sense to put them back here just to purge/expel them
					if = {
						limit = { has_country_modifier = racial_pop_ruinborn_purge }
						remove_country_modifier = racial_pop_ruinborn_purge
						country_event = { id = race_setup_events.9 } # Update opinion
					} else_if = {
						limit = { has_country_modifier = racial_pop_ruinborn_expulsion }
						remove_country_modifier = racial_pop_ruinborn_expulsion
						country_event = { id = race_setup_events.9 } # Update opinion
					}
				}
				country_event = { id = flavor_cestirmark.104 }  #offers to release them
			}
			
		}
	}

	H33_form_the_coalition = {
		icon = mission_missive
		position = 3
		required_missions = { 
			H33_protect_yanek
		}

		provinces_to_highlight = {
			OR = {
				area = yanekin_area
				area = bentwaters_area
				province_id = 1995
				province_id = 2459
			}
			NOT = { renaissance = 100 }
		}

		trigger = {
			OR = {
				G04 = { #Yanek
					AND = {
						is_subject_of = ROOT
						has_institution = renaissance
					}
				}
				AND = {
					#All Yanek's starting land, including tribal land
					yanekin_area = {
						type = all
						country_or_non_sovereign_subject_holds = ROOT
						renaissance = 100
					}
					bentwaters_area = {
						type = all
						country_or_non_sovereign_subject_holds = ROOT
						renaissance = 100
					}
					1995 = { 
						country_or_non_sovereign_subject_holds = ROOT 
						renaissance = 100
					}
					2459 = { 
						country_or_non_sovereign_subject_holds = ROOT
						renaissance = 100
					}
				}
			}
			custom_trigger_tooltip = {
				tooltip = H33_no_aelnar_tt
				OR = {
					any_known_country = {
						capital_scope = { region = bloodgroves_region }
						OR = {
							has_country_modifier = elven_administration
							is_colonial_nation = yes
						}
						has_spy_network_from = {
							who = ROOT
							value = 50
						}
					}
					#no valid option
					NOT = {
						any_known_country = {
							capital_scope = { region = bloodgroves_region }
							OR = {
								has_country_modifier = elven_administration
								is_colonial_nation = yes
							}
						}
					}
				}
			}
		}

		effect = {
			firrfrem_area = {
				limit = {
					NOT = { owned_by = ROOT }
				}
				add_permanent_claim = ROOT
			}
			1012 = { add_permanent_claim = ROOT } #Lunsunvars
			1119 = { add_permanent_claim = ROOT } #Abhennard
			1116 = { add_permanent_claim = ROOT } #Jerrtrinkost
			if = { 
				limit = { G04 = { exists = no } }
				country_event = { id = flavor_cestirmark.104 }
			}
			every_known_country = {
				limit = {
					capital_scope = {
						region = bloodgroves_region
					}
					OR = {
						has_country_modifier = elven_administration
						is_colonial_nation = yes
					}
					has_spy_network_from = {
						who = ROOT
						value = 50
					}
				}
				every_known_country = {
					limit = {
						capital_scope = {
							region = trollsbay_region
						}
						NOT = { culture_is_ruinborn = yes }
					}
					reverse_add_opinion = {
						who = PREV
						modifier = cestirmark_trollsbay_coalition
						years = 20
					}
					set_ai_attitude = {
						attitude = attitude_hostile
						who = PREV
						locked = yes
					}
				}
			}
			
		}
	}

	H33_join_militias = {
		icon = mission_hessian_jaeger_corps
		position = 4
		required_missions = { 
			H33_concord_in_trollsbay
			H33_form_the_coalition
		}

		provinces_to_highlight = {
			is_capital = yes
			owner = { has_country_flag = trollsbay_concord_member }
		}

		trigger = {
			cestirmark_no_concord_influence = yes
			all_known_country = {
				custom_trigger_tooltip = {
					tooltip = H33_concord_favors_tt
					if = {
						limit = { has_country_flag = trollsbay_concord_member }
						owes_favors = { 
							who = ROOT 
							value = 10 
						}
					}
				}
				custom_trigger_tooltip = {
					tooltip = H33_concord_5_units_in_capital_tt
					if = {
						limit = { has_country_flag = trollsbay_concord_member }
						capital_scope = { 
							num_of_units_in_province = {
								who = ROOT
								amount = 5
							}
						}
					}
				}
			}
			if = {
				limit = { has_dlc = "Cradle of Civilization" }
				army_professionalism = 0.2
			} else = {
				army_tradition = 25
				num_of_generals = 5
			}
		}

		effect = {
			country_event = { id = flavor_cestirmark.202 }
			if = {
				limit = { has_dlc = "Cradle of Civilization" }
				add_army_professionalism = -0.1
			} else = {
				add_army_tradition = -10
			}
			unlock_merc_company = { merc_company = merc_harmonist_militia }
			every_known_country = {
				limit = { has_country_flag = trollsbay_concord_member }
				ROOT = {
					add_favors = {
						who = PREV
						amount = -10
					}
				}
				country_event = { id = flavor_cestirmark.206 }
			}
		}
	}

	H33_gateway_to_the_ynn = {
		icon = mission_dominate_home_trade_node
		position = 5
		required_missions = { 
			H33_join_militias
		}

		provinces_to_highlight = {
			OR = {
				AND = {
					is_capital = yes
				owner = { has_country_flag = trollsbay_concord_member }
				}
				province_group = trollsbay_lower_cliff_passages
			}
		}

		trigger = {
			cestirmark_no_concord_influence = yes
			all_known_country = {
				custom_trigger_tooltip = {
					tooltip = H33_concord_favors_tt
					if = {
						limit = { has_country_flag = trollsbay_concord_member }
						owes_favors = { 
							who = ROOT 
							value = 10 
						}
					}
				}
			}
			calc_true_if = {
				trollsbay_lower_cliff_passages = {
					type = all
					OR = {
						has_great_project = {
							type = spoorland_lift
						}
						has_great_project = {
							type = walkway_of_thorns
						}
						has_great_project = {
							type = arca_noruin
						}
						has_great_project = {
							type = arca_venaan
						}
						has_great_project = {
							type = arbeloch_ascensor
						}
					}
					owner = { 
						OR = {
							custom_trigger_tooltip = {
								tooltip = H33_is_concord_member_tt
								has_country_flag = trollsbay_concord_member
							}
							is_subject_of = ROOT
						}
					}
				}
				amount = 3
			}
		}

		effect = {
			country_event = { id = flavor_cestirmark.202 }
			add_mercantilism = 5
			every_known_country = {
				limit = { has_country_flag = trollsbay_concord_member }
				ROOT = {
					add_favors = {
						who = PREV
						amount = -10
					}
				}
				country_event = { id = flavor_cestirmark.207 }
			}
		}
	}

	H33_anti_colonial_policy = {
		icon = mission_iberian_conquistador
		position = 6
		required_missions = { 
			H33_gateway_to_the_ynn
			H33_eastern_ynnic_gate
		}

		provinces_to_highlight = {
			OR = {
				AND = {
					is_capital = yes
					owner = { has_country_flag = trollsbay_concord_member }
				}
				AND = {
					is_capital = yes
					region = ruined_isles_region
				}
			}
		}

		trigger = {
			cestirmark_no_concord_influence = yes
			all_known_country = {
				custom_trigger_tooltip = {
					tooltip = H33_concord_favors_tt
					if = {
						limit = { has_country_flag = trollsbay_concord_member }
						owes_favors = { 
							who = ROOT 
							value = 10 
						}
					}
				}
			}
			OR = {
				calc_true_if = {
					amount = 4
					all_known_country = {
						capital_scope = { region = ruined_isles_region }
						has_been_insulted_by_root = yes
					}
				}
				1527 = { #Ruined sea node
					has_privateer_share_in_trade_node = {
						who = ROOT
						share = 0.1
					}
				}
			}
			army_strength = {
				who = A01 #Lorent
				value = 0.25
			}
		}

		effect = {
			country_event = { id = flavor_cestirmark.202 }
			add_power_projection = {
				type = mission_rewards_power_projection
				amount = 20
			}
			every_known_country = {
				limit = {
					hidden_trigger = {
						capital_scope = {
							region = trollsbay_region
						}
					}
					has_country_flag = trollsbay_concord_member
				}
				ROOT = {
					add_favors = {
						who = PREV
						amount = -10
					}
				}
				country_event = { id = flavor_cestirmark.208 }
			}
		}
	}

	H33_nationalize_deetic_factories = {
		icon = mission_establish_the_prikazy
		position = 7
		required_missions = { 
			H33_anti_colonial_policy
			H33_more_than_cash_crops
		}

		provinces_to_highlight = {
			area = great_tussock_area
			has_coast_defense_building_trigger = no
		}

		trigger = {
			mercantilism = 20
			great_tussock_area = {
				type = all
				country_or_non_sovereign_subject_holds = ROOT
				has_coast_defense_building_trigger = yes
			}
		}

		effect = {
			add_country_modifier = {
				name = H33_nationalized_DTC_holdings
				duration = 3650
			}
			silsenald_isles_area = {
				limit = {
					NOT = { owned_by = ROOT }
				}
				add_permanent_claim = ROOT
			}
			reverse_add_opinion = {
				who = G99 #DTC
				modifier = cestirmark_seized_assets
			}
		}
	}

	H33_stop_trollsbay_plundering = {
		icon = mission_pirate_fleet
		position = 8
		required_missions = { 
			H33_nationalize_deetic_factories
		}

		provinces_to_highlight = {
			OR = {
				AND = {
					province_id = 927
					province_has_current_tech_fort_trigger = no
					has_coast_defense_building_trigger = no
				}
				AND = {
					province_id = 1051
					province_has_current_tech_fort_trigger = no
					has_coast_defense_building_trigger = no
				}
			}
		}

		trigger = {
			silsenald_isles_area = {
				type = all
				country_or_non_sovereign_subject_holds = ROOT
			}
			#Cas Colunn
			927 = {
				province_has_current_tech_fort_trigger = yes
				has_coast_defense_building_trigger = yes
			}
			#Seven Stone Trolls
			1051 = {
				province_has_current_tech_fort_trigger = yes
				has_coast_defense_building_trigger = yes
			}
		}

		effect = {
			927 = { add_permanent_province_modifier = { name = H33_trollsbay_shipping_lane duration = -1 } }
			1051 = { add_permanent_province_modifier = { name = H33_trollsbay_shipping_lane duration = -1 } }
			great_tussock_area = { add_permanent_province_modifier = { name = H33_trollsbay_shipping_lane duration = -1 } }
			stalwart_outpost_area = {
				limit = {
					NOT = { owned_by = ROOT }
				}
				add_permanent_claim = ROOT
			}
		}
	}
}

cestirmark_5 = {
	slot = 5
	generic = no
	ai = yes
	potential = {
		tag = H33
	}
	has_country_shield = yes

	H33_divide_plantation_land = {
		icon = mission_peasantry
		position = 2
		required_missions = { 
			H33_race_for_the_bay
		}

		provinces_to_highlight = {
			OR = {
				area = cestirmark_area
				province_id = 1991
			}
			NOT = { base_production = 5 }
		}

		trigger = {
			cestirmark_area = {
				type = all
				owned_by = ROOT
				base_production = 5
			}
			#Fernwell
			1991 = {
				owned_by = ROOT
				base_production = 5
			}
		}

		effect = {
			1992 = { #Arangreen
				if = {
					limit = { NOT = { 1992 = { trade_goods = gold } } }
					change_trade_goods = tobacco
					add_orcish_minority_size_effect = yes
					add_province_modifier = {
						name = H33_small_scale_plantations
						duration = 14600
					}
				}
			}
			1018 = { #Bushwall
				if = {
					limit = { NOT = { 1018 = { trade_goods = gold } } }
					change_trade_goods = tobacco
					add_orcish_minority_size_effect = yes
					add_province_modifier = {
						name = H33_small_scale_plantations
						duration = 14600
					}
				}
			}
			1022 = { #Lancewood
				if = {
					limit = { NOT = { 1022 = { trade_goods = gold } } }
					change_trade_goods = cotton
					add_orcish_minority_size_effect = yes
					add_province_modifier = {
						name = H33_small_scale_plantations
						duration = 14600
					}
				}
			}
			1991 = { #Fernwell
				if = {
					limit = { NOT = { 1991 = { trade_goods = gold } } }
					change_trade_goods = cotton
					add_orcish_minority_size_effect = yes
					add_province_modifier = {
						name = H33_small_scale_plantations
						duration = 14600
					}
				}
			}
			large_decrease_of_orcish_tolerance_effect = yes
		}
	}

	H33_arangreen_shipping = {
		icon = mission_rb_scottish_north_sea_trade
		position = 3
		required_missions = { 
			H33_divide_plantation_land
		}

		provinces_to_highlight = {
			OR = {
				AND = {
					province_id = 1992
					has_shipyard_building_trigger = no
					has_dock_building_trigger = no
				}
				AND = {
					owned_by = ROOT
					has_terrain = woods
				}
			}
		}

		trigger = {
			num_of_owned_provinces_with = {
				has_terrain = woods
				development = 12
				has_production_building_trigger = yes
				value = 3
			}
			1992 = { #Arangreen
				has_shipyard_building_trigger = yes
				has_dock_building_trigger = yes
			}
			num_of_light_ship = 15
		}

		effect = {
			custom_tooltip = H33_get_orcs_workers_tt
			hidden_effect = {
				every_owned_province = {
					limit = {
						has_terrain = woods
						development = 12
						has_production_building_trigger = yes
					}
					add_orcish_minority_size_effect = yes
				}
			}
			medium_decrease_of_orcish_tolerance_effect = yes
			add_years_of_owned_provinces_production_income = {
				years = 5
				trigger = {
					OR = {
						trade_goods = cotton
						trade_goods = tobacco
					}
				}
			}
		}
	}

	H33_support_sella_trade = {
		icon = mission_market
		position = 4
		required_missions = { 
			H33_arangreen_shipping
			H33_form_the_coalition
		}

		provinces_to_highlight = {
			OR = {
				AND = {
					OR = {
						area = firrfrem_area
						province_id = 1012
						province_id = 1119
						province_id = 1116
					}
					NOT = { country_or_non_sovereign_subject_holds = ROOT }
				}	
				province_id = 1131
				province_id = 1995
				province_id = 1015
			}
		}

		trigger = {
			firrfrem_area = {
				type = all
				country_or_non_sovereign_subject_holds = ROOT
			}
			1012 = { country_or_non_sovereign_subject_holds = ROOT } #Lunsunvars
			1119 = { country_or_non_sovereign_subject_holds = ROOT } #Abhennard
			1116 = { country_or_non_sovereign_subject_holds = ROOT } #Jerrtrinkost
			1131 = { #Sella Falls
				OR = {
					AND = {
						hidden_trigger = { NOT = { country_or_non_sovereign_subject_holds = ROOT } }
						owner = {
							has_opinion = {
								who = ROOT
								value = 100
							}
						}
					}
					AND = {
						country_or_non_sovereign_subject_holds = ROOT
						has_trade_building_trigger = yes
					}
				}
			}
			1995 = { #Sellacann
				OR = {
					AND = {
						hidden_trigger = { NOT = { country_or_non_sovereign_subject_holds = ROOT } }
						owner = {
							has_opinion = {
								who = ROOT
								value = 100
							}
						}
					}
					AND = {
						country_or_non_sovereign_subject_holds = ROOT
						has_trade_building_trigger = yes
					}
				}
			}
			1015 = { #Sella
				OR = {
					AND = {
						hidden_trigger = { NOT = { country_or_non_sovereign_subject_holds = ROOT } }
						owner = {
							has_opinion = {
								who = ROOT
								value = 100
							}
						}
					}
					AND = {
						country_or_non_sovereign_subject_holds = ROOT
						has_trade_building_trigger = yes
					}
				}
			}
			estate_loyalty = {
				estate = estate_burghers
				loyalty = 60
			}
		}

		effect = {
			if = {
				limit = {
					has_dlc = "Leviathan"
					NOT = {1128 = { has_great_project = { type = arbeloch_ascensor } } } #Arbeloch
				}
				1128 = { 
					add_province_modifier = {
						name = H33_planning_ynnic_gate
						duration = -1
					} 
				}
			} else = {
				1128 = {
					add_base_tax = 1
					add_base_production = 2
					add_base_manpower = 1
				}
			}
		}
	}

	H33_eastern_ynnic_gate = {
		icon = claim_tirol
		position = 5
		required_missions = { 
			H33_support_sella_trade
		}

		provinces_to_highlight = {
			OR = {
				province_id = 1128
				province_id = 1126
				province_id = 1018
				province_id = 1871
			}
		}

		trigger = {
			1128 = { #Arbeloch
				has_great_project = { type = arbeloch_ascensor }
				has_trade_building_trigger = yes
			}
			1126 = { has_trade_building_trigger = yes } #Yanekin
			1018 = { has_trade_building_trigger = yes } #Bushwall
			1871 = { #Cestirmark (province)
				has_trade_building_trigger = yes 
				has_dock_building_trigger = yes
			}
			1517 = { is_strongest_trade_power = ROOT } #Sella node
		}

		effect = {
			1871 = { center_of_trade = 2 }
			1128 = { add_orcish_minority_size_effect = yes }
			medium_decrease_of_orcish_tolerance_effect = yes
		}
	}

	H33_more_than_cash_crops = {
		icon = mission_have_manufactories
		position = 6
		required_missions = { 
			H33_eastern_ynnic_gate
		}

		provinces_to_highlight = {
			owned_by = ROOT
			OR = {
				trade_goods = cotton
				trade_goods = fur
			}
		}

		trigger = {
			OR = {
				dyes = 1
				1871 = { has_halfling_minority_trigger = yes } #Cestirmark (province)
			}
			num_of_owned_provinces_with = {
				OR = {
					trade_goods = cotton
					trade_goods = fur
				}
				base_production = 8
				has_production_building_trigger = yes
				value = 4
			}
			1871 = {
				development = 25
				OR = {
					trade_goods = gold
					has_production_building_trigger = yes
				}
			}
		}

		effect = {
			1871 = {
				change_trade_goods = cloth #no bonus goods produced on gold
				add_permanent_province_modifier = {
					name = H33_domestic_textile_industry
					duration = -1
				}
			}
			great_tussock_area = {
				limit = { NOT = { owned_by = ROOT } }
				add_permanent_claim = ROOT
			}
		}
	}

	H33_adventuring_industry = {
		icon = mission_potion
		position = 7
		required_missions = { 
			H33_more_than_cash_crops
		}

		provinces_to_highlight = {
			OR = {
				province_id = 1019
				province_id = 1020
				province_id = 2449
			}
			NOT = {
				has_manpower_building_trigger = yes
				has_forcelimit_building_trigger = yes
				base_manpower = 10
			}
		}

		trigger = {
			1019 = { #Vincenton
				has_manpower_building_trigger = yes
				has_forcelimit_building_trigger = yes
				base_manpower = 10
			}
			1020 = { #Trollsbridge
				has_manpower_building_trigger = yes
				has_forcelimit_building_trigger = yes
				base_manpower = 10
			}
			2449 = { #Pelleton
				has_manpower_building_trigger = yes
				has_forcelimit_building_trigger = yes
				base_manpower = 10
			}
			num_of_estate_privileges = {
				estate = estate_adventurers
				value = 5
			}
		}

		effect = {
			if = {
				limit = { NOT = { 1020 = { trade_goods = gold } } }
				1020 = { change_trade_goods = iron }
			}
			if = {
				limit = { NOT = { 2449 = { trade_goods = gold } } }
				2449 = { change_trade_goods = glass }
			}
			add_estate_influence_modifier = {
				estate = estate_adventurers
				desc = EST_VAL_ADVENTURERS_ADVANCES
				influence = 10
				duration = 5475
			}
		}
	}

	H33_livable_cities = {
		icon = reclaim_the_ducal_lands
		position = 8
		required_missions = { 
			H33_adventuring_industry
		}

		provinces_to_highlight = {
			province_group = cestirmark_proper_coast
		}

		trigger = {
			cestirmark_proper_coast = {
				type = all
				development = 30
				NOT = { unrest = 0 }
				custom_trigger_tooltip = { #sigh for basic tooltips being broken
					tooltip = H33_parliament_seat_tt
					has_seat_in_parliament = yes
				}
				if = {
					limit = { has_dlc = "Mandate of Heaven" }
					custom_trigger_tooltip = {
						tooltip = is_prosperous_tt
						is_prosperous = yes
					}
				}
				else = {
					NOT = { devastation = 1 }
				}
			}
			1871 = { province_has_center_of_trade_of_level = 3 } #Cestirmark (province)
		}

		effect = {
			cestirmark_proper_coast = { add_permanent_province_modifier = { name = H33_trollsbay_urbanization duration = -1 } }
		}
	}
}

united_concord_1 = {
	slot = 1
	generic = no
	ai = yes
	potential = {
		tag = H33
		has_country_flag = united_concord
	}
	has_country_shield = yes

	H33_capital_for_the_union = {
		icon = brest_dockyards
		position = 10
		required_missions = { 
			H33_more_perfect_concord
		}

		provinces_to_highlight = {
			province_id = 1031
		}

		trigger = {
			ynnsmouth_area = {
				type = all
				country_or_non_sovereign_subject_holds = ROOT
			}
			development_in_provinces = {
				value = 500
				region = trollsbay_region
			}
			1031 = { #Venainé
				custom_trigger_tooltip = { #sigh for basic tooltips being broken
					tooltip = H33_parliament_seat_tt
					has_seat_in_parliament = yes
				}
				custom_trigger_tooltip = {
					tooltip = H33_not_building_anything_tt
					NOT = { has_construction = building }
					NOT = { has_construction = core }
					NOT = { has_construction = culture }
					NOT = { has_construction = missionary }
					NOT = { has_colonist = yes }
				}
			}
			1901 = { #Ruincliff
				custom_trigger_tooltip = {
					tooltip = H33_not_building_anything_tt
					NOT = { has_construction = building }
					NOT = { has_construction = core }
					NOT = { has_construction = culture }
					NOT = { has_construction = missionary }
					NOT = { has_colonist = yes }
				}
			}
		}

		effect = {
			set_capital = 1031
			1031 = {  #Venainé
				if = { 
					limit = { NOT = { 1031 = { trade_goods = gold } } }
					change_trade_goods = paper
				}
				change_religion = ROOT
				add_culture_construction = {
					speed = 1
					cost = 0.5
				}
			}
			1901 = { #Ruincliff
				change_religion = ROOT
				add_culture_construction = {
					speed = 1
					cost = 0.5
				}
			}
			ynnsmouth_area = {
				add_province_modifier = { #el generico
					name = "growth_of_capital"
					duration = 9125 #25 years
				}
			}
			hidden_effect = { 
				country_event = {
					id = flavor_cestirmark.350
					days = 365
					random = 1460
				}
			}
		}
	}

	H33_shadow_under_ynnsmouth = {
		icon = mission_look_west
		position = 11
		required_missions = { 
			H33_capital_for_the_union
		}

		provinces_to_highlight = {
			NOT = {
				province_distance = {
					who = 1526
					distance = 90 #The inner bay, as you would expect
				}
			}
			has_port = yes
		}

		trigger = {
			if = {
				limit = { 1028 = { has_province_modifier = H33_kuukuswlaws_influence } }
				custom_trigger_tooltip = {
					tooltip = H33_kuukuswlaws_awoken_tt
					1028 = { #Ynnsmouth
						NOT = { 
							OR = {
								has_province_modifier = aw_eldritch_cultists_1
								has_province_modifier = aw_eldritch_cultists_2
								has_province_modifier = aw_eldritch_cultists_3
							} 
						}
					}
				}
			}
			1526 = { #North Trollsbay
				heavy_ships_in_province = 30
			}
			num_of_owned_provinces_with = {
				NOT = {
					province_distance = {
						who = 1526
						distance = 90 #The inner bay, as you would expect
					}
				}
				hidden_trigger = { has_port = yes }
				has_building = naval_battery
				value = 10
			}
		}

		effect = {
			custom_tooltip = H33_protected_from_kuukuslaws_tt
			country_event = { id = flavor_cestirmark.351 }
		}
	}

	H33_cold_cases = {
		icon = mission_rb_trinity_college_dublin
		position = 12
		required_missions = { 
			H33_shadow_under_ynnsmouth
		}

		provinces_to_highlight = {
			province_id = 2787
			NOT = { has_building = mage_tower }
			province_has_current_tech_fort_trigger = no
		}

		trigger = {
			2787 = { #Stalwart Outpost
				owned_by = ROOT
				has_building = mage_tower
				province_has_current_tech_fort_trigger = yes
			}
			trading_part = {
				trade_goods = precursor_relics
				value = 0.075
			}
			crown_land_share = 50
		}

		effect = {
			give_estate_land_share_massive = { estate = estate_adventurers }
			1019 = { #Vincenton
				add_permanent_province_modifier = {
					name = H33_secured_anomalies
					duration = -1
				}
			}
			2787 = { #Stalwart Outpost
				add_permanent_province_modifier = {
					name = H33_secured_anomalies
					duration = -1
				}
			}
			set_country_flag = scp_bureau_containment_unlocked
			set_estate_privilege = estate_adventurers_contain_dangerous_artefacts
		}
	}

	H33_complete_our_monopoly = {
		icon = mission_trade_company_region_abroad
		position = 13
		required_missions = { 
			H33_cold_cases
			H33_greater_concord
		}

		trigger = {
			dip_tech = 22
			navy_size_percentage = 0.95
		}

		effect = {
			2789 = { add_permanent_claim = ROOT } #Eyjkasver
			zamrobst_area = {
				limit = {
					NOT = { owned_by = ROOT }
				}
				add_permanent_claim = ROOT
			}
			azodsengha_area = {
				limit = {
					NOT = { owned_by = ROOT }
				}
				add_permanent_claim = ROOT
			}
			1247 = { add_permanent_claim = ROOT } #Dhancost
			1746 = { add_permanent_claim = ROOT } #Verencel
			1749 = { add_permanent_claim = ROOT } #Sagahmadr
			add_country_modifier = {
				name = H33_verencel_bay_company
				duration = 3650
			}
		}
	}

	H33_from_sea_to_frozen_sea = {
		icon = mission_protect_white_sea_trade
		position = 14
		required_missions = { 
			H33_complete_our_monopoly
			H33_stop_careless_studies
		}

		provinces_to_highlight = {
			OR = {
				AND = {
					area = cymailean_area
					NOT = { country_or_non_sovereign_subject_holds = ROOT }
				}
				AND = {
					province_id = 2789
					NOT =  {
						country_or_non_sovereign_subject_holds = ROOT
						province_has_current_tech_fort_trigger = yes
						has_coast_defense_building_trigger = yes
					}
				}
			}
		}

		trigger = {
			#TODO: replace that with Nortiochand does not exist when they're added
			cymailean_area = {
				type = all
				country_or_non_sovereign_subject_holds = ROOT
			}
			1492 = { is_strongest_trade_power = ROOT } #Broken sea node
			2789 = {  #Eyjkasver
				country_or_non_sovereign_subject_holds = ROOT
				province_has_current_tech_fort_trigger = yes
				has_coast_defense_building_trigger = yes
			}
		}

		effect = {
			2789 = { add_permanent_province_modifier = { name = H33_trollsbay_shipping_lane duration = -1 } }
			1139 = { #Lower Ynn
				add_trade_modifier = {
					who = ROOT
					duration = -1
					power = 20
					key = STRONG_MERCHANTS
				}
			}
			1165 = { #Upper Ynn
				add_trade_modifier = {
					who = ROOT
					duration = -1
					power = 20
					key = STRONG_MERCHANTS
				}
			}
			1847 = { #Expanse
				add_trade_modifier = {
					who = ROOT
					duration = -1
					power = 20
					key = STRONG_MERCHANTS
				}
			}
			hidden_effect = { 
				country_event = {
					id = flavor_cestirmark.375 #TODO: THE MACHINE
					days = 365
					random = 1460
				}
			}
		}
	}

	H33_not_so_special_anymore = {
		icon = mission_solaris
		position = 15
		required_missions = { 
			H33_from_sea_to_frozen_sea
			H33_artificers_in_the_bureau
		}

		provinces_to_highlight = {
			has_great_project = {
				type = ynnic_precursor_dome_stanyrhrada
			}
		}

		trigger = {
			has_institution = enlightenment
			if = {
				limit = { has_dlc = "Leviathan" }
				OR = {
					any_owned_province = {
						has_great_project = {
							type = ynnic_precursor_dome_stanyrhrada
							tier = 3
						}
					}
					any_subject_country = {
						any_owned_province = {
							has_great_project = {
								type = ynnic_precursor_dome_stanyrhrada
								tier = 3
							}
						}
					}
				}
			} else = {
				owns_or_non_sovereign_subject_of = 1142
			}
			treasury = 5000
			OR = {
				natural_scientist = 5
				spymaster = 5
			}
			precursor_relics = 5
			has_estate_privilege = estate_adventurers_contain_dangerous_artefacts
			artifice_has_points_for_expert = yes
		}

		effect = {
			add_treasury = -5000
			custom_tooltip = H33_move_dome_to_capital_tt
			if = {
				limit = { has_dlc = "Leviathan" }
				hidden_effect = { #move dome to capital (no actual effect to do that apparently)
					destroy_great_project = { type = ynnic_precursor_dome_stanyrhrada }
					capital_scope = { 
						set_province_flag = ynnic_precursor_dome_relocation
						add_great_project = { 
							type = ynnic_precursor_dome_stanyrhrada
							instant = yes
						}
						set_great_project_tier_3 = { type = ynnic_precursor_dome_stanyrhrada }
					}
				}
			} else = {
				capital_scope = { 
					add_province_modifier = { 
						name = H33_golden_dome_non_leviathan
						duration = -1
					}
				}
			}
			artifice_granted_expert = yes
			country_event = {
				id = flavor_cestirmark.399
				days = 3650
			}
		}
	}
}

united_concord_2 = {
	slot = 2
	generic = no
	ai = yes
	potential = {
		tag = H33
		has_country_flag = united_concord
	}
	has_country_shield = yes

	H33_expand_membership = {
		icon = the_ostend_company
		position = 11
		required_missions = { 
			H33_capital_for_the_union
			H33_reform_our_politics
		}

		trigger = {
			prestige = 50
			diplomatic_reputation = 4
		}

		effect = {
			if = {
				limit = { H41 = { exists = yes } } #Sornicande
				add_casus_belli = {
					target = H41
					type = cb_vassalize_mission
					months = 240
				}
			}
			if = {
				limit = { G92 = { exists = yes } } #Saamirses
				add_casus_belli = {
					target = G92
					type = cb_vassalize_mission
					months = 240
				}
			}
			if = {
				limit = { H43 = { exists = yes } } #Neratica
				add_casus_belli = {
					target = H43
					type = cb_vassalize_mission
					months = 240
				}
			}
			bloodgroves_region = {
				limit = {
					NOT = { owned_by = ROOT }
				}
				add_permanent_claim = ROOT
			}
			reapers_coast_region = {
				limit = {
					NOT = { owned_by = ROOT }
				}
				add_permanent_claim = ROOT
			}
			saamirses_area = {
				limit = {
					NOT = { owned_by = ROOT }
				}
				add_permanent_claim = ROOT
			}
		}
	}

	H33_greater_concord = {
		icon = mission_unite_home_region
		position = 12
		required_missions = { 
			H33_expand_membership
		}

		provinces_to_highlight = {
			OR = {
				region = trollsbay_region
				region = bloodgroves_region
				region = reapers_coast_region
				area = saamirses_area
			}
			NOT = {
				owned_by = ROOT
				OR = {
					culture_group = trollsbayer
					has_owner_accepted_culture = yes
				}
				NOT = { nationalism = 1 }
			}
		}

		trigger = {
			trollsbay_region = {
				type = all
				owned_by = ROOT
				OR = {
					culture_group = trollsbayer
					has_owner_accepted_culture = yes
				}
				NOT = { nationalism = 1 }
			}
			bloodgroves_region = {
				type = all
				owned_by = ROOT
				OR = {
					culture_group = trollsbayer
					has_owner_accepted_culture = yes
				}
				NOT = { nationalism = 1 }
			}
			reapers_coast_region = {
				type = all
				owned_by = ROOT
				OR = {
					culture_group = trollsbayer
					has_owner_accepted_culture = yes
				}
				NOT = { nationalism = 1 }
			}
			saamirses_area = {
				type = all
				owned_by = ROOT
				OR = {
					culture_group = trollsbayer
					has_owner_accepted_culture = yes
				}
				NOT = { nationalism = 1 }
			}
			trading_policy_in_node = {
				node = 1517 #Sella node
				policy = improve_inland_routes
			}
			trading_policy_in_node = {
				node = 1528 #Reaper's coast node
				policy = improve_inland_routes
			}
		}

		effect = {
			add_stability_or_adm_power = yes
			tameter_area = {
				limit = {
					NOT = { owned_by = ROOT }
				}
				add_permanent_claim = ROOT
			}
			tlayxtlaroyan_area = {
				limit = {
					NOT = { owned_by = ROOT }
				}
				add_permanent_claim = ROOT
			}
			xochibarcel_quixo_area = {
				limit = {
					NOT = { owned_by = ROOT }
				}
				add_permanent_claim = ROOT
			}
			cuecuaden_area = {
				limit = {
					NOT = { owned_by = ROOT }
				}
				add_permanent_claim = ROOT
			}
			mtzacuala_yolli_area = {
				limit = {
					NOT = { owned_by = ROOT }
				}
				add_permanent_claim = ROOT
			}
			tumbatin_xochibar_area = {
				limit = {
					NOT = { owned_by = ROOT }
				}
				add_permanent_claim = ROOT
			}
		}
	}

	H33_stop_careless_studies = {
		icon = mission_artificier_experience
		position = 13
		required_missions = { 
			H33_cold_cases
			H33_greater_concord
		}

		provinces_to_highlight = {
			OR = {
				area = tameter_area
				area = tlayxtlaroyan_area
				area = xochibarcel_quixo_area
				area = cuecuaden_area
				area = mtzacuala_yolli_area
				area = tumbatin_xochibar_area
			}
			NOT = { country_or_non_sovereign_subject_holds = ROOT }
		}

		trigger = {
			tameter_area = {
				type = all
				country_or_non_sovereign_subject_holds = ROOT
			}
			tlayxtlaroyan_area = {
				type = all
				country_or_non_sovereign_subject_holds = ROOT
			}
			xochibarcel_quixo_area = {
				type = all
				country_or_non_sovereign_subject_holds = ROOT
			}
			cuecuaden_area = {
				type = all
				country_or_non_sovereign_subject_holds = ROOT
			}
			mtzacuala_yolli_area = {
				type = all
				country_or_non_sovereign_subject_holds = ROOT
			}
			tumbatin_xochibar_area = {
				type = all
				country_or_non_sovereign_subject_holds = ROOT
			}
		}

		effect = {
			north_vanburia_area = {
				limit = {
					NOT = { owned_by = ROOT }
				}
				add_permanent_claim = ROOT
			}
			west_vanburia_area = {
				limit = {
					NOT = { owned_by = ROOT }
				}
				add_permanent_claim = ROOT
			}
			east_vanburia_area= {
				limit = {
					NOT = { owned_by = ROOT }
				}
				add_permanent_claim = ROOT
			}
		}
	}

	H33_artificers_in_the_bureau = {
		icon = mission_gnome_tinkering
		position = 14
		required_missions = { 
			H33_stop_careless_studies
		}

		trigger = {
			OR = {
				has_estate_privilege = estate_artificers_organization_ravelian_control
				estate_loyalty = {
					estate = estate_artificers
					loyalty = 60
				}
			}
			num_artifice_inventions_discovered = { VAL = 3 }
			OR = {
				estate_influence = {
					estate = estate_artificers
					influence = 40
				}
				any_known_country = {
					capital_scope = { region = haraf_region }
					OR = {
						culture_is_gnomish = yes
						culture_is_kobold = yes
						culture_is_goblin = yes
					}
					trust = {
						who = ROOT
						value = 60
					}
				}
			}
		}

		effect = {
			add_estate_adventurers_loyalty_effect = yes
			add_estate_artificers_loyalty_effect = yes
			if = {
				limit = { NOT = { has_estate_privilege = estate_artificers_organization_ravelian_control } }
				set_estate_privilege = estate_artificers_organization_state
			}
			define_advisor = {
				type = natural_scientist
				skill = 3
				location = 1019
				discount = yes
			}
		}
	}
}

united_concord_3 = {
	slot = 3
	generic = no
	ai = yes
	potential = {
		tag = H33
		has_country_flag = united_concord
	}
	has_country_shield = yes

	H33_reform_our_politics = {
		icon = mission_plc_edict_education
		position = 10
		required_missions = { 
			H33_more_perfect_concord
		}

		provinces_to_highlight = {
			province_group = concord_capitals
			has_seat_in_parliament = no
		}

		trigger = {
			has_country_modifier = separation_of_powers
			high_tolerance_halfling_race_trigger = yes
			concord_capitals = { 
				type = all
				custom_trigger_tooltip = { #sigh for basic tooltips being broken
					tooltip = H33_parliament_seat_tt
					has_seat_in_parliament = yes
				}
			}
			custom_trigger_tooltip = {
				tooltip = H33_5_parliament_seats_for_each_trollsbayer_tt
				if = {
					limit = { 
						num_of_owned_provinces_with = {
							OR = {
								culture = cestirmarker
								culture = east_damerian
							}
							value = 1
						}
					}
					num_of_owned_provinces_with = {
						culture = cestirmarker
						has_seat_in_parliament = yes
						value = 5
					}
				}
				if = {
					limit = { 
						num_of_owned_provinces_with = {
							OR = {
								culture = marlliander
								culture = arannese
							}
							value = 1
						}
					}
					num_of_owned_provinces_with = {
						culture = marlliander
						has_seat_in_parliament = yes
						value = 5
					}
				}
				if = {
					limit = { 
						num_of_owned_provinces_with = {
							OR = {
								culture = isobeliner
								culture = roilsardi
							}
							value = 1
						} 
					}
					num_of_owned_provinces_with = {
						culture = isobeliner
						has_seat_in_parliament = yes
						value = 5
					}
				}
				if = {
					limit = { 
						num_of_owned_provinces_with = {
							OR = {
								culture = zanlibi
								culture = bahari
							}
							value = 1
						}
					}
					num_of_owned_provinces_with = {
						culture = zanlibi
						has_seat_in_parliament = yes
						value = 5
					}
				}
				if = {
					limit = { 
						num_of_owned_provinces_with = {
							OR = {
								culture = towerfoot_halfling
								culture = visfoot_halfling
							}
							value = 1
						}
					}
					num_of_owned_provinces_with = {
						culture = towerfoot_halfling
						has_seat_in_parliament = yes
						value = 5
					}
				}
				if = {
					limit = { 
						num_of_owned_provinces_with = {
							OR = {
								culture = valorman
								#culture = valorborn
								culture = vernman
							}
							value = 1
						} 
					}
					num_of_owned_provinces_with = {
						OR = {
							culture = valorman
							#culture = valorborn
						}
						has_seat_in_parliament = yes
						value = 5
					}
				}
			}
		}

		effect = {
			add_government_reform = trollsbayer_pluralism_reform
			custom_tooltip = H33_harmonist_debate_unlocked_tt
		}
	}

	H33_concord_and_union = {
		icon = support_american_independence
		position = 11
		required_missions = { 
			H33_reform_our_politics
		}

		provinces_to_highlight = {
			province_group = concord_capitals
			NOT = { num_of_times_improved_by_owner = 5 }
		}

		trigger = {
			concord_capitals = { type = all num_of_times_improved_by_owner = 5 }
			OR = {
				#confederation
				calc_true_if = {
					has_reform = union_of_states_reform
					has_reform = cultural_administration_reform
					has_reform = devolution_of_powers_reform
					has_reform = consolidate_power_into_different_candidates_reform
					has_reform = revolutionary_council_reform
					amount = 2
				}
				#centralization
				calc_true_if = {
					has_reform = provincial_governments_reform
					has_reform = administrative_divisions_reform
					has_reform = broaden_executive_powers_reform
					has_reform = consolidate_power_to_the_ruler_reform
					has_reform = absolute_president_reform
					amount = 2
				}
			}
			adm = 5
			OR = {
				ruler_culture = isobeliner
				OR = {
					ruler_has_personality = reformist_personality
					ruler_has_personality = well_advised_personality
					ruler_has_personality = righteous_personality
					ruler_has_personality = lawgiver_personality
				}
			}

		}

		effect = {
			concord_capitals = { add_permanent_province_modifier = { name = H33_trollsbay_urbanization duration = -1 } }
			custom_tooltip = H33_dynamic_reward_gov_reform_tt
			if = {
				limit = {
					OR = {
						has_reform = union_of_states_reform
						has_reform = cultural_administration_reform
						has_reform = devolution_of_powers_reform
						has_reform = consolidate_power_into_different_candidates_reform
					}
				}
				add_country_modifier = {
					name = "decentralization_modifier"
					duration = 3650
				}
				custom_tooltip = H33_accepts_all_trollsbayer_tt
				if = { limit = { accepted_culture = isobeliner } add_dip_power  = 50 } else = { add_accepted_culture = isobeliner }
				if = { limit = { accepted_culture = valorman } add_dip_power  = 50 } else = { add_accepted_culture = valorman }
				if = { limit = { accepted_culture = towerfoot_halfling } add_dip_power  = 50 } else = { add_accepted_culture = towerfoot_halfling }
				if = { limit = { accepted_culture = zanlibi } add_dip_power  = 50 } else = { add_accepted_culture = zanlibi }
				if = { limit = { accepted_culture = marlliander } add_dip_power  = 50 } else = { add_accepted_culture = marlliander }
				trollsbay_sovereignist_effect = { culture = cestirmarker }
				trollsbay_sovereignist_effect = { culture = isobeliner }
			} else_if = {
				limit = {
					OR = {
						has_reform = provincial_governments_reform
						has_reform = administrative_divisions_reform
						has_reform = broaden_executive_powers_reform
						has_reform = consolidate_power_to_the_ruler_reform
					}
				}
				add_country_modifier = {
					name = "centralization_modifier"
					duration = 3650
				}
				concord_capitals = {
					limit = { NOT = { has_building = courthouse } }
					add_building = courthouse
				}
				trollsbay_sovereignist_effect = { culture = zanlibi }
				trollsbay_sovereignist_effect = { culture = towerfoot_halfling }
			}
		}
	}

	H33_will_of_the_people = {
		icon = establish_the_chancellorship
		position = 12
		required_missions = { 
			H33_concord_and_union
		}

		trigger = {
			if = {
				limit = { is_revolutionary = no }
				OR = {
					NOT = { absolutism = -100 }
					absolutism = 70
				}
			} else = {
				revolutionary_zeal = 70
			}
			republican_tradition = 80
			mil = 5
			OR = {
				ruler_culture = marlliander
				OR = {
					ruler_has_personality = charismatic_negotiator_personality
					ruler_has_personality = inspiring_leader_personality
					ruler_has_personality = righteous_personality
					ruler_has_personality = well_connected_personality
				}
			}
		}

		effect = {
			halves_parliament_bribe_costs = yes
			custom_tooltip = general_tooltip_dynamic_reward
			if = { 
				limit = { 
					OR = {
						NOT = { absolutism = -100 }
						revolutionary_zeal = 70
					}
				}
				add_country_modifier = {
					name = H33_liberal_values
					duration = -1
				}
				trollsbay_sovereignist_effect = { culture = marlliander }
				trollsbay_sovereignist_effect = { culture = towerfoot_halfling }
			} else_if = { 
				limit = { absolutism = 70 }
				add_country_modifier = {
					name = H33_trollsbayer_exceptionalism
					duration = -1
				}
				trollsbay_sovereignist_effect = { culture = cestirmarker }
				trollsbay_sovereignist_effect = { culture = valorman }
			}
		}
	}

	H33_unity_through_prosperity = {
		icon = dominant_economy
		position = 13
		required_missions = { 
			H33_will_of_the_people
			H33_greater_concord
		}

		trigger = {
			#Trollsbay node
			1519 = { 
				trade_node_value = 100
				trade_share = {
					country = ROOT
					share = 90
				}
			}
			estate_loyalty = {
				estate = estate_nobles
				loyalty = 60
			}
			estate_loyalty = {
				estate = estate_burghers
				loyalty = 60
			}
			OR = { #looks useless, but it's to show how to get the different rewards
				OR = {
					has_reform = empower_the_burghers_reform
					has_reform = embrace_the_economic_theory_reform
					has_reform = free_trade_reform
				}
				OR = {
					has_reform = curtail_the_burghers_reform
					has_reform = mercantilistic_approach_reform
					has_reform = lockean_proviso_reform
				}
			}
			adm = 5
			OR = {
				ruler_culture = towerfoot_halfling
				OR = {
					ruler_has_personality = midas_touched_personality
					ruler_has_personality = industrious_personality
					ruler_has_personality = entrepreneur_personality
				}
			}
		}

		effect = {
			concord_new_cities = { add_permanent_province_modifier = { name = H33_trollsbay_urbanization duration = -1 } }
			custom_tooltip = H33_dynamic_reward_gov_reform_tt
			if = { #Trade with Cannor
				limit = {
					OR = {
						has_reform = empower_the_burghers_reform
						has_reform = embrace_the_economic_theory_reform
						has_reform = free_trade_reform
					}
				}
				add_country_modifier = {
					name = freetrade_modifier
					duration = 3650
				}
				custom_tooltip = H33_trade_cannor_reward_tt
				hidden_effect = {
					trollsbay_region = {
						limit = { has_building = plantations }
						add_orcish_minority_size_effect = yes
					}
				}
				trollsbay_sovereignist_effect = { culture = valorman}
				trollsbay_sovereignist_effect = { culture = zanlibi }
			}
			if = { #Trade with Aelantir
				limit = {
					OR = {
						has_reform = curtail_the_burghers_reform
						has_reform = mercantilistic_approach_reform
						has_reform = lockean_proviso_reform
					}
				}
				add_country_modifier = {
					name = mercantilism_modifier
					duration = 3650
				}
				custom_tooltip = H33_trade_aelantir_reward_tt
				hidden_effect = {
					concord_capitals = {
						limit = {
							province_with_urban_goods = no
							NOT = {
								trade_goods = iron
								trade_goods = gold
								trade_goods = damestear
								trade_goods = precursor_relics
							}
						}
						random_list = {
							4 = { change_trade_goods = paper }
							2 = { change_trade_goods = iron }
							3 = { change_trade_goods = glass }
							5 = { change_trade_goods = cloth }
						}
					}
				}
				trollsbay_sovereignist_effect = { culture = marlliander }
			}
		}
	}

	H33_review_the_citizenship = {
		icon = mission_rb_monopolize_the_channel
		position = 14
		required_missions = { 
			H33_unity_through_prosperity
		}

		trigger = {
			stability = 2
			custom_trigger_tooltip = {
				tooltip = H33_2_north_aelantir_ruinborn_accepted_tt
				calc_true_if = {
					accepted_culture = boek
					accepted_culture = kwineh
					accepted_culture = cheshoshi
					accepted_culture = rzentur
					accepted_culture = old_rzentur
					accepted_culture = dolindhan
					accepted_culture = sarda
					accepted_culture = malacnari
					accepted_culture = harafe
					accepted_culture = kooras
					accepted_culture = mayte
					accepted_culture = epednar
					accepted_culture = veykodan
					amount = 2
				}
			}
			NOT = { has_country_modifier = orcish_slaves_in_colonies }
			dip = 5
			OR = {
				ruler_culture = valorman
				OR = {
					ruler_has_personality = just_personality
					ruler_has_personality = tolerant_personality
					ruler_has_personality = benevolent_personality
					ruler_has_personality = kind_hearted_personality
				}
			}
		}

		effect = {
			small_increase_of_orcish_tolerance_effect = yes
			medium_increase_of_half_orcish_tolerance_effect = yes
			medium_increase_of_ruinborn_tolerance_effect = yes
			capital_scope = { add_half_orcish_minority_size_effect = yes }
			custom_tooltip = H33_get_half_orcs_in_cities_tt
			hidden_effect = {
				trollsbay_region = {
					limit = { has_province_modifier = H33_trollsbay_urbanization }
					add_half_orcish_minority_size_effect = yes
				}
			}
			custom_tooltip = H33_get_tax_in_minorities_tt
			hidden_effect = {
				trollsbay_region = {
					limit = { culture = boek }
					add_base_tax = 1
				}
				trollsbay_region = {
					limit = { has_orcish_minority_trigger = yes }
					add_base_tax = 1
				}
			}
			trollsbay_sovereignist_effect = { culture = marlliander }
			trollsbay_sovereignist_effect = { culture = zanlibi }
		}
	}

	H33_trollsbayer_identity = {
		icon = strengthen_the_vroedschappen
		position = 15
		required_missions = { 
			H33_review_the_citizenship
		}

		provinces_to_highlight = {
			region = trollsbay_region
			local_autonomy = 5
			nationalism = 1
			is_prosperous = no
		}

		trigger = {
			trollsbay_region = {
				type = all
				NOT = { local_autonomy = 5 }
				if = {
					limit = { has_dlc = "Mandate of Heaven" }
					custom_trigger_tooltip = {
						tooltip = is_prosperous_tt
						is_prosperous = yes
					}
				}
				else = {
					NOT = { devastation = 1 }
				}
				NOT = { nationalism = 1 }
			}
			num_of_owned_provinces_with = {
				region = trollsbay_region
				development = 30
				has_building = university
				has_building = town_hall
				value = 20
			}
			has_final_tier_reforms_trigger = yes
			mil = 5
			OR = {
				ruler_culture = zanlibi
				OR = {
					ruler_has_personality = scholar_personality
					ruler_has_personality = free_thinker_personality
					ruler_has_personality = tolerant_personality
				}
			}
		}

		effect = {
			custom_tooltip = H33_all_trollsbayer_lose_cores_tt
			hidden_effect = {
				every_owned_province = {
					limit = { 
						OR = {
							is_core = G95
							is_core = G96
							is_core = H36
							is_core = G91
							is_core = H38
						}
					}
					remove_core = G95
					remove_core = G96
					remove_core = H36
					remove_core = G91
					remove_core = H38
				}
			}
			if = { limit = { has_country_modifier = H33_concord_isobelin_influence } remove_country_modifier = H33_concord_isobelin_influence }
			if = { limit = { has_country_modifier = H33_concord_thilvis_influence } remove_country_modifier = H33_concord_thilvis_influence }
			if = { limit = { has_country_modifier = H33_concord_marlliande_influence } remove_country_modifier = H33_concord_marlliande_influence }
			if = { limit = { has_country_modifier = H33_concord_zanlib_influence } remove_country_modifier = H33_concord_zanlib_influence }
			if = { limit = { has_country_modifier = H33_concord_valorpoint_influence } remove_country_modifier = H33_concord_valorpoint_influence }
			if = { limit = { has_country_modifier = H33_concord_cestirmark_influence } remove_country_modifier = H33_concord_cestirmark_influence }
			add_country_modifier = {
				name = H33_united_in_purpose
				duration = -1
			}
		}
	}

	H33_concord_in_aelantir = {
		icon = mission_aelantir
		position = 16
		required_missions = { 
			H33_not_so_special_anymore
			H33_trollsbayer_identity
			H33_union_of_three_peoples
		}

		provinces_to_highlight = {
			is_capital = yes
			owner = { 
				is_great_power = yes
				NOT = { alliance_with = ROOT }
				OR = {
					capital_scope = { continent = north_america }
					any_subject_country = {
						is_colonial_nation = yes
						capital_scope = { continent = north_america }
					}
				}
			}
		}

		trigger = {
			custom_trigger_tooltip = {
				tooltip = H33_concord_in_aelantir_tt
				NOT = {
					any_known_country = {
						is_great_power = yes
						NOT = { alliance_with = ROOT }
						OR = {
							capital_scope = { continent = north_america }
							any_subject_country = {
								is_colonial_nation = yes
								capital_scope = { continent = north_america }
							}
						}
					}
				}
			}
			num_of_issues_passed = { 
				tooltip = H33_5_issues_passed_tt
				value = 5
			}
			dip = 5
			OR = {
				ruler_culture = cestirmarker
				OR = {
					ruler_has_personality = incorruptible_personality
					ruler_has_personality = just_personality
					ruler_has_personality = righteous_personality
					ruler_has_personality = calm_personality
				}
			}
		}

		effect = {
			if = {
				limit = { 
					has_dlc = "Mandate of Heaven"
					has_had_golden_age = yes
				} 
				custom_tooltip = pol_if_used_ge_rest_else_30_years_extension_tt #why is it named after Poland since it's generic?
				reset_golden_age = yes 
			} else_if = {
				limit = {
					has_dlc = "Mandate of Heaven"
					in_golden_age = yes
					
				} 
				custom_tooltip = pol_if_used_ge_rest_else_30_years_extension_tt #why is it named after Poland since it's generic?
				extend_golden_age = 360
			} else = {
				add_adm_power = 300
				add_dip_power = 300
				add_mil_power = 300
				custom_tooltip = H33_could_extend_golden_age_tt
			}
		}
	}
}

united_concord_4 = {
	slot = 4
	generic = no
	ai = yes
	potential = {
		tag = H33
		has_country_flag = united_concord
	}
	has_country_shield = yes

	H33_support_vodynnar = {
		icon = mission_dual_diplomacy
		position = 11
		required_missions = { 
			H33_darantynns_legacy
		}

		trigger = {
			OR = {
				trading_policy_in_node = {
					node = 1847 #Expanse
					policy = establish_communities
				}
				trading_policy_in_node = {
					node = 1847 #Expanse
					policy = hostile_trading
				}
			}
			OR = {
				trading_policy_in_node = {
					node = 1165 #Upper Ynn
					policy = establish_communities
				}
				trading_policy_in_node = {
					node = 1165 #Upper Ynn
					policy = hostile_trading
				}
			}
			OR = {
				trading_policy_in_node = {
					node = 1139 #Lower Ynn
					policy = establish_communities
				}
				trading_policy_in_node = {
					node = 1139 #Lower Ynn
					policy = hostile_trading
				}
			}	
			is_lacking_institutions = no
			national_focus = DIP
			1139 = { #Sarda node
				trade_share = {
					country = ROOT
					share = 25
				}
			}
		}

		effect = {
			define_advisor = {
				type = master_of_mint
				skill = 3
				culture = sarda
				religion = ynn_river_worship
				name = "Celadil yen Domfan"
				female = no
				discount = yes
			}
			define_advisor = {
				type = trader
				skill = 3
				culture = sarda
				religion = ynn_river_worship
				name = "Valyana Rudovlai"
				female = yes
				discount = yes
			}
			define_advisor = {
				type = quartermaster
				skill = 3
				culture = dolindhan
				religion = ynn_river_worship
				name = "Finoread Saskjaro"
				female = no
				discount = yes
			}
		}
	}

	H33_protect_uplander_republics = {
		icon = mission_ynnic_knights
		position = 12
		required_missions = { 
			H33_support_vodynnar
			H33_concord_and_union
			H33_untapped_market
		}

		provinces_to_highlight = {
			is_capital = yes
			superregion = ynn_superregion
			owner = { 
				government = republic
				OR = {
					is_subject = no
					is_subject_of = ROOT
				}
			}
			
		}

		trigger = {
			cestirmark_valid_ynnic_sister_republic = { region = lower_ynn }
			cestirmark_valid_ynnic_sister_republic = { region = upper_ynn }
			cestirmark_valid_ynnic_sister_republic = { region = expanse }
		}

		effect = {
			random_known_country = {
				limit = { 
					capital_scope = { colonial_region = colonial_upper_ynn } 
					government = republic
					is_subject = no
					has_opinion_modifier = { who = ROOT modifier = improved_relation value = 100 }
				}
				country_event = { id = flavor_cestirmark.105 }
			}
			2488 = { #Brelar (province)
				add_permanent_claim = ROOT
				if = {
					limit = { NOT = { owner = { government = republic } } }
					owner = {
						reverse_add_casus_belli = {
							type = cb_change_government
							target = ROOT
							months = 240
						}
					}
				}
			}
			random_known_country = {
				limit = { 
					capital_scope = { colonial_region = colonial_lower_ynn } 
					government = republic
					is_subject = no
					has_opinion_modifier = { who = ROOT modifier = improved_relation value = 100 }
				}
				country_event = { id = flavor_cestirmark.105 }
			}
			1134 = { #Vels Domfan (province)
				add_permanent_claim = ROOT
				if = {
					limit = { NOT = { owner = { government = republic } } }
					owner = {
						reverse_add_casus_belli = {
							type = cb_change_government
							target = ROOT
							months = 240
						}
					}
				}
			}
			random_known_country = {
				limit = { 
					capital_scope = { colonial_region = colonial_expanse } 
					government = republic
					is_subject = no
					has_opinion_modifier = { who = ROOT modifier = improved_relation value = 100 }
				}
				country_event = { id = flavor_cestirmark.105 }
			}
			2854 = { #Cathfei
				add_permanent_claim = ROOT
				if = {
					limit = { NOT = { owner = { government = republic } } }
					owner = {
						reverse_add_casus_belli = {
							type = cb_change_government
							target = ROOT
							months = 240
						}
					}
				}
			}
		}
	}

	H33_appeal_to_free_classes = {
		icon = victor_for_the_true_faith
		position = 13
		required_missions = { 
			H33_protect_uplander_republics
		}

		provinces_to_highlight = {
			is_capital = yes
			superregion = ynn_superregion
			owner = { 
				culture_group = ynnic_ruinborn_elf
				NOT = {
					OR = {
						has_opinion = {
							who = ROOT
							value = 100
						}
						has_spy_network_from = {
							who = ROOT
							value = 50
						}
					}
				}
			}
		}

		trigger = {
			OR = {
				calc_true_if = {
					custom_trigger_tooltip = {
						tooltip = H33_100_relation_ynnic_tt
						all_known_country = { 
							culture_group = ynnic_ruinborn_elf
							OR = {
								has_opinion = {
									who = ROOT
									value = 100
								}
								has_spy_network_from = {
									who = ROOT
									value = 50
								}
							}
						}
					}
					amount = 10
				}
				custom_trigger_tooltip = {
					tooltip = H33_100_relation_ynnic_bypass_tt
					NOT = {
						any_known_country = {
							culture_group = ynnic_ruinborn_elf
							NOT = {
								OR = {
									has_opinion = {
										who = ROOT
										value = 100
									}
									has_spy_network_from = {
										who = ROOT
										value = 50
									}
								}
							}
						}
					}
				}
			}
		}

		effect = {
			if = {
				limit = {
					1139 = { #Arverynn
						owner = {
							government = republic
							OR = {
								is_subject_of = ROOT
								alliance_with = ROOT
							}
						}
					}
				}
				add_prestige = 10
			}
			else = {
				1139 = {
					owner = {
						reverse_add_casus_belli = {
							type = cb_change_government
							target = ROOT
							months = 240
						}
					}
				}
			}
			if = {
				limit = {
					1171 = { #Vareynn
						owner = {
							government = republic
							OR = {
								is_subject_of = ROOT
								alliance_with = ROOT
							}
						}
					}
				}
				add_prestige = 10
			}
			else = {
				1171 = {
					owner = {
						reverse_add_casus_belli = {
							type = cb_change_government
							target = ROOT
							months = 240
						}
					}
				}
			}
			if = {
				limit = {
					1191 = { #Svemel
						owner = {
							government = republic
							OR = {
								is_subject_of = ROOT
								alliance_with = ROOT
							}
						}
					}
				}
				add_prestige = 10
			}
			else = {
				1191 = {
					owner = {
						reverse_add_casus_belli = {
							type = cb_change_government
							target = ROOT
							months = 240
						}
					}
				}
			}
			random_subject_country = {
				limit = { capital_scope = { colonial_region = colonial_upper_ynn } }
				colonial_upper_ynn = { add_permanent_claim = THIS }
			}
			random_subject_country = {
				limit = { capital_scope = { colonial_region = colonial_lower_ynn } }
				colonial_lower_ynn = { add_permanent_claim = THIS }
			}
			random_subject_country = {
				limit = { capital_scope = { colonial_region = colonial_expanse } }
				colonial_expanse = { add_permanent_claim = THIS }
			}
		}
	}

	H33_end_the_dark_ages = {
		icon = mission_arverynn_street
		position = 14
		required_missions = { 
			H33_appeal_to_free_classes
			H33_unity_through_prosperity
			H33_ynnic_republicanism
		}

		provinces_to_highlight = {
			OR = {
				province_id = 1139
				province_id = 1171
				province_id = 1191
			}
			NOT = {
				OR = {
					country_or_non_sovereign_subject_holds = ROOT
					owner = { alliance_with = ROOT }
				}
				is_prosperous = yes
				province_has_center_of_trade_of_level = 3
			}
		}

		trigger = {
			1139 = { #Arverynn
				OR = {
					country_or_non_sovereign_subject_holds = ROOT
					owner = { alliance_with = ROOT }
				}
				if = {
					limit = { has_dlc = "Mandate of Heaven" }
					is_prosperous = yes
				}
				else = {
					NOT = { devastation = 1 }
				}
				province_has_center_of_trade_of_level = 3
			}
			1171 = { #Vareynn
				OR = {
					country_or_non_sovereign_subject_holds = ROOT
					owner = { alliance_with = ROOT }
				}
				if = {
					limit = { has_dlc = "Mandate of Heaven" }
					is_prosperous = yes
				}
				else = {
					NOT = { devastation = 1 }
				}
				province_has_center_of_trade_of_level = 3
			}
			1191 = { #Svemel
				OR = {
					country_or_non_sovereign_subject_holds = ROOT
					owner = { alliance_with = ROOT }
				}
				if = {
					limit = { has_dlc = "Mandate of Heaven" }
					is_prosperous = yes
				}
				else = {
					NOT = { devastation = 1 }
				}
				province_has_center_of_trade_of_level = 3
			}
			treasury = 3000
			hidden_trigger = { #to make sure the event can fire; should be the case if the other conditions are fulfilled anyway
				has_institution = global_trade
				is_great_power = yes
			}
		}

		effect = {
			add_treasury = -3000
			1139 = { #Arverynn
				add_human_minority_size_effect = yes
				add_halfling_minority_size_effect = yes
				if = {
					limit = { NOT = { owned_by = ROOT } }
					owner = {
						add_country_modifier = {
							name = H33_trollsbayer_guidance
							duration = 9125
						}
					}
				}
				give_all_embraced_institutions_to_province_effect = yes
			}
			1171 = { #Vareynn
				add_human_minority_size_effect = yes
				add_halfling_minority_size_effect = yes
				if = {
					limit = { NOT = { owned_by = ROOT } }
					owner = {
						add_country_modifier = {
							name = H33_trollsbayer_guidance
							duration = 9125
						}
					}
				}
				give_all_embraced_institutions_to_province_effect = yes
			}
			1191 = { #Svemel
				add_human_minority_size_effect = yes
				add_halfling_minority_size_effect = yes
				if = {
					limit = { NOT = { owned_by = ROOT } }
					owner = {
						add_country_modifier = {
							name = H33_trollsbayer_guidance
							duration = 9125
						}
					}
				}
				give_all_embraced_institutions_to_province_effect = yes
			}
			country_event = { id = ynn_events.0 } #Reurbanization
		}
	}
}

united_concord_5 = {
	slot = 5
	generic = no
	ai = yes
	potential = {
		tag = H33
		has_country_flag = united_concord
	}
	has_country_shield = yes

	H33_darantynns_legacy = {
		icon = medici_bank_ledgers
		position = 10
		required_missions = { 
			H33_more_perfect_concord
		}

		provinces_to_highlight = {
			province_group = trollsbay_lower_cliff_passages
		}

		trigger = {
			trollsbay_lower_cliff_passages = {
				type = all
				has_trade_building_trigger = yes
				province_has_current_tech_fort_trigger = yes
			}
			any_known_country = {
				culture = sarda
				has_opinion = {
					who = ROOT
					value = 100
				}
			}
		}

		effect = {
			add_mercantilism = 10
		}
	}

	H33_untapped_market = {
		icon = mission_advance_to_the_dnieper
		position = 11
		required_missions = { 
			H33_darantynns_legacy
		}

		provinces_to_highlight = {
			province_group = ynnsmouth_connection
		}

		trigger = {
			ynnsmouth_connection = {
				type = all
				OR = {
					country_or_non_sovereign_subject_holds = ROOT
					owner = { 
						custom_trigger_tooltip = {
							tooltip = H33_100_improved_relations_tt
							has_opinion_modifier = { who = ROOT modifier = improved_relation value = 100 }
						}
					}
				}
			}
			1133 = { #Adbrabohvi
				province_trade_power = 50
			}
			1031 = { #Venainé
				province_trade_power = 50
			}
			1028 = { #Ynnsmouth
				province_has_center_of_trade_of_level = 3
				province_trade_power = 50
			}
		}

		effect = {
			ynnsmouth_connection = {
				add_permanent_province_modifier = {
					name = H33_ynnsmouth_connection
					duration = -1
				}
			}
			1133 = {
				add_human_minority_size_effect = yes
				add_halfling_minority_size_effect = yes
			}
		}
	}

	H33_ynnic_republicanism = {
		icon = republican_yearnings
		position = 13
		required_missions = { 
			H33_protect_uplander_republics
		}

		provinces_to_highlight = {
			superregion = ynn_superregion
			NOT = { owner = { government = republic } }
		}

		trigger = {
			any_known_country = {
				capital_scope = { superregion = ynn_superregion }
				OR = {
					is_subject_of = ROOT
					alliance_with = ROOT
				}
				trust = {
					who = ROOT
					value = 60
				}
				owns = 2488
			}
			any_known_country = {
				capital_scope = { superregion = ynn_superregion }
				OR = {
					is_subject_of = ROOT
					alliance_with = ROOT
				}
				trust = {
					who = ROOT
					value = 60
				}
				owns = 1134
			}
			any_known_country = {
				capital_scope = { superregion = ynn_superregion }
				OR = {
					is_subject_of = ROOT
					alliance_with = ROOT
				}
				trust = {
					who = ROOT
					value = 60
				}
				owns = 2854
			}
			calc_true_if = {
				amount = 100
				ynn_superregion = {
					type = all
					owner = { government = republic }
				}
			}
			adm_power = 75
			dip_power = 75
			mil_power = 75
		}

		effect = {
			add_adm_power = -75
			add_dip_power = -75
			add_mil_power = -75
			2488 = {
				add_human_minority_size_effect = yes
				add_halfling_minority_size_effect = yes
				owner = {
					add_adm_power = 25
					add_dip_power = 25
					add_mil_power = 25
					add_country_modifier = {
						name = H33_trollsbayer_guidance
						duration = 9125
					}
				}
			}
			1134 = {
				add_human_minority_size_effect = yes
				add_halfling_minority_size_effect = yes
				owner = {
					add_adm_power = 25
					add_dip_power = 25
					add_mil_power = 25
					add_country_modifier = {
						name = H33_trollsbayer_guidance
						duration = 9125
					}
				}
			}
			2854 = {
				add_human_minority_size_effect = yes
				add_halfling_minority_size_effect = yes
				owner = {
					add_adm_power = 25
					add_dip_power = 25
					add_mil_power = 25
					add_country_modifier = {
						name = H33_trollsbayer_guidance
						duration = 9125
					}
				}
			}
			add_country_modifier = {
				name = H33_ynnic_sister_republics
				duration = -1
			}
		}
	}

	H33_maintain_the_balance = {
		icon = mission_pol_develop_countryside
		position = 14
		required_missions = { 
			H33_ynnic_republicanism
		}

		trigger = {
			calc_true_if = {
				amount = 3
				custom_trigger_tooltip = {
					tooltip = H33_higher_dev_than_arverynn_tt
					ynn_superregion = {
						type = all
						OR = {
							country_or_non_sovereign_subject_holds = ROOT
							owner = { alliance_with = ROOT }
						}
						higher_development_than = 1139 #Arverynn
						has_building = cathedral
						OR = {
							culture_group = ynnsman
							culture = pipefoot_halfling
							culture = steel_dwarf
							culture = moon_elf
						}
					}
				}
			}
		}

		effect = {
			custom_tooltip = H33_dev_ynnsmen_reward_tt
			hidden_effect = {
				ynn_superregion = {
					limit = {
						OR = {
							country_or_non_sovereign_subject_holds = ROOT
							owner = { alliance_with = ROOT }
						}
						higher_development_than = 1139 #Arverynn
						has_building = cathedral
						OR = {
							culture_group = ynnsman
							culture = pipefoot_halfling
							culture = steel_dwarf
							culture = moon_elf
						}
					}
					add_human_minority_size_effect = yes
					add_halfling_minority_size_effect = yes
					give_all_embraced_institutions_to_province_effect = yes
					if = {
						limit = { NOT = { owned_by = ROOT } }
						owner = {
							add_country_modifier = {
								name = H33_trollsbayer_guidance
								duration = 9125
							}
						}
					}
				}
			}
		}
	}

	H33_union_of_three_peoples = {
		icon = mission_plc_prevent_deluge
		position = 10
		required_missions = { 
			H33_end_the_dark_ages
			H33_maintain_the_balance
		}

		provinces_to_highlight = {
			is_capital = yes
			superregion = ynn_superregion
			NOT = {
				owner = {
					OR = {
						is_subject_of = ROOT
						alliance_with = ROOT
					}
				}
			}
		}

		trigger = {
			custom_trigger_tooltip = {
				tooltip = H33_its_all_republican_tt
				NOT = {
					any_known_country = {
						capital_scope = { superregion = ynn_superregion }
						NOT = {
							OR = {
								is_subject_of = ROOT
								alliance_with = ROOT
							}
						}
					}
				}
			}
			development_in_provinces = {
				value = 1000
				OR = {
					culture_group = trollsbayer
					culture = towerfoot_halfling
				}
			}
			calc_true_if = { #used to be 1000 in ynnic and ynnsmen provinces to show all three matter, but that was too messy to do
				amount = 3
				custom_trigger_tooltip = {
					tooltip = H33_500_dev_ynn_tt
					all_known_country = {
						capital_scope = { superregion = ynn_superregion }
						OR = {
							is_subject_of = ROOT
							alliance_with = ROOT
						}
						total_development = 500
					}
				}
			}
		}

		effect = {
			custom_tooltip = H33_reorganize_ynn_tt
			hidden_effect = {
				country_event = { 
					id = flavor_cestirmark.106
					days = 1
				}
			}
			add_republican_tradition_excess_to_mana_effect = { VAL = 25 }
		}
	}
}

union_placeholder = {
	slot = 3
	generic = no
	ai = yes
	potential = {
		tag = H33
		NOT = { has_country_flag = united_concord }
	}
	has_country_shield = no

	H33_union_placeholder = {
		icon = mission_unknown_mission
		position = 10
		required_missions = { 
			H33_more_perfect_concord
		}

		trigger = {
		}

		effect = {
			swap_non_generic_missions = yes
		}
	}
}

