
ravenmarch_1_missions = {
	slot = 1
	generic = no
	ai = yes 
	has_country_shield = yes
	potential = { tag = B48 }
	
	ravenmarch_dostans_way = {
		icon = mission_alone_in_the_forest
		position = 1
		required_missions = { }

		provinces_to_highlight = { 
			area = dostans_way_area
			NOT = { country_or_non_sovereign_subject_holds = ROOT }
		}
		
		trigger = {
			dostans_way_area = {
				country_or_non_sovereign_subject_holds = ROOT
				type = all
			}
		}
		
		effect = {
			devaced_area = {
				add_permanent_claim = ROOT
			}
			vernham_area = {
				add_permanent_claim = ROOT
			}
			beastgrave_area = {
				add_permanent_claim = ROOT
			}
			clovenwood_area = {
				add_permanent_claim = ROOT
			}
			banesfork_area = {
				add_permanent_claim = ROOT
			}
		}
	}
	
	ravenmarch_godshield_foothills = {
		icon = mission_che_the_cave_country
		position = 2
		required_missions = { ravenmarch_dostans_way }

		provinces_to_highlight = {
			OR = {
				area = devaced_area
				area = catelsvord_area
			}
			NOT = { country_or_non_sovereign_subject_holds = ROOT }
		}
		
		trigger = {
			devaced_area = {
				country_or_non_sovereign_subject_holds = ROOT
				type = all
			}
			catelsvord_area = {
				country_or_non_sovereign_subject_holds = ROOT
				type = all
			}
		}
		
		effect = {
			784 = {
				add_permanent_claim = ROOT
			}
			786 = {
				add_permanent_claim = ROOT
			}
			789 = {
				add_permanent_claim = ROOT
			}
			oudmerewood_area = {
				add_permanent_claim = ROOT
			}
			verteben_area = {
				add_permanent_claim = ROOT
			}
			valefort_area = {
				add_permanent_claim = ROOT
			}
		}
	}
	
	ravenmarch_imperial_sympathies = {
		icon = mission_missive
		position = 6
		required_missions = { ravenmarch_secure_inheritance }
		
		trigger = {
			calc_true_if = {
				all_country = {
					is_part_of_hre = yes
					has_opinion = {
						who = ROOT
						value = 75
					}
				}
				amount = 5
			}
		}
		
		effect = {
			add_dip_power = 50
			add_country_modifier = {
				name = ravenmarch_imperial_connections
				duration = 9125
			}
		}
	}
	
	ravenmarch_midnight = {
		icon = promote_the_carnevale
		position = 7
		required_missions = { ravenmarch_imperial_sympathies ravenmarch_light_in_darkness }
		
		trigger = {
			treasury = 100
			prestige = 60
			OR = {
				AND = {
					if = {
						limit = { exists = A59 }
						has_spy_network_in = {
							who = A59
							value = 75
						}
					}
					else = {
						any_neighbor_country = {	
							owns = 441
							has_spy_network_from = {
								who = ROOT
								value = 75
							}
						}
					}
				}
				AND = {
					if = {
						limit = { exists = A59 }
						reverse_has_opinion = {
							who = A59
							value = 100
						}
					}
					else = {
						any_neighbor_country = {	
							owns = 441
							reverse_has_opinion = {
								who = ROOT
								value = 100
							}
						}
					}
				}
			}
		}
		effect = {
			add_treasury = -100
			every_neighbor_country = {
				limit = { owns = 441 }
				add_spy_network_from = {
					who = ROOT
					value = -75
				}
			}
			country_event = { id = flavor_ravenmarch.3 days = 7 }
		}
	}
	
	ravenmarch_printing_truths = {
		icon = subiaco_press
		position = 9
		required_missions = { }
		
		provinces_to_highlight = {
			province_id = 800
			NOT = {
				AND = {
					owned_by = ROOT
					is_core = ROOT
					base_production = 10
					OR = {
						has_production_building_trigger = yes
						trade_goods = gold
					}
					is_prosperous = yes
				}
			}
		}
		
		trigger = {
			owns_core_province = 800
			is_institution_enabled = printing_press
			800 = {
				base_production = 10
				has_production_building_trigger = yes
				is_prosperous = yes
			}
		}
		
		effect = {
			if = {
				limit = {
					800 = {
						NOT = { printing_press = 75 }
					}
				}
				800 = {
					add_institution_embracement = {
						which = printing_press
						value = 50
					}
				}
			}
			else_if = {
				limit = {
					800 = {
						NOT = { printing_press = 100 }
					}
				}
				800 = {
					add_institution_embracement = {
						which = printing_press
						value = 25
					}
					add_base_production = 1
				}
			}
			else = {
				800 = {
					add_base_production = 2
				}
			}
			hidden_effect = {
				country_event = { id = flavor_ravenmarch.19 days = 3650 }
			}
		}
	}
	
	ravenmarch_new_vernham = {
		icon = austria_prospers
		position = 10
		required_missions = { ravenmarch_printing_truths }
		
		provinces_to_highlight = {
			province_id = 808
			NOT = {
				AND = {
					base_tax = 8
					base_production = 6
					base_manpower = 4
					has_tax_building_trigger = yes
				}
			}
		}
		
		trigger = {
			owns_core_province = 808
			808 = {
				base_tax = 8
				base_production = 6
				base_manpower = 4
				has_tax_building_trigger = yes
			}
		}
		
		effect = {
			808 = {
				add_province_modifier = {
					name = ravenmarch_popular_estates
					duration = -1
				}
			}
			if = {
				limit = {
					NOT = {
						808 = {
							OR = {
								trade_goods = gold
								trade_goods = damestear
							}
						}
					}
				}
				808 = {
					change_trade_goods = incense
					add_province_modifier = {
						name = ravenmarch_ryalan_perfumery
						duration = -1
					}
				}
			}
			else = {
				add_years_of_owned_provinces_production_income = {
					years = 1
					trigger = {
						province_id = 808
					}
				}
			}
			add_estate_loyalty = {
				estate = estate_nobles
				loyalty = 10
			}
			add_estate_influence_modifier = {
				estate = estate_nobles
				desc = RAVENMARCH_RYALAN_DISTRACTION
				influence = -10
				duration = 3650
			}
		}
	}
	
	ravenmarch_daravans_folly = {
		icon = mission_necromancy
		position = 12
		required_missions = { ravenmarch_dredging_sunken_land }
		
		provinces_to_highlight = {
			province_id = 440
			NOT = { has_building = mage_tower }
		}
		
		trigger = {
			estate_loyalty = {
				estate = estate_mages
				loyalty = 60
			}
			estate_influence = {
				estate = estate_mages
				influence = 50
			}
			440 = {
				has_building = mage_tower
			}
			num_of_owned_provinces_with = {
				region = daravans_folly_region
				has_building = mage_tower
				value = 4
			}
			treasury = 1500
			adm_power = 100
			dip_power = 100
			mil_power = 100
		}
		
		effect = {
			add_treasury = -1500
			add_adm_power = -100
			add_dip_power = -100
			add_mil_power = -100
			custom_tooltip = ravenmarch_folly_transmutation
			hidden_effect = {
				every_owned_province = {
					limit = {
						has_building = mage_tower
						region = daravans_folly_region
					}
					add_base_tax = 1
					add_base_production = 1
					add_base_manpower = 1
					add_province_modifier = {
						name = ravenmarch_undoing_folly
						duration = -1
					}
					province_event = { id = flavor_ravenmarch.20 days = 7 random = 15 }
				}
			}
			add_country_modifier = {
				name = ravenmarch_undoing_folly_mages
				duration = 18250
			}
		}
	}
	
	ravenmarch_securing_brink = {
		icon = mission_landsknecht_soldier
		position = 15
		required_missions = { ravenmarch_new_corveld }
		
		provinces_to_highlight = {
			area = eastborders_area
		}
		trigger = {
			eastborders_area = {
				owned_by = ROOT
				type = all
			}
		}
		effect = {
			if = {
				limit = {
					NOT = {
						mil = 6
					}
				}
				change_mil = 1
			}
			else = {
				add_mil_power = 50
				add_prestige = 10
			}
		}
	}
	
	ravenmarch_pawns_on_board = {
		icon = mission_conquer_50_development
		position = 16
		required_missions = { ravenmarch_securing_brink }
		
		provinces_to_highlight = {
			OR = {
				area = antir_drop_area
				area = highcliff_area
			}
		}
		trigger = {
			antir_drop_area = {
				country_or_non_sovereign_subject_holds = ROOT
				type = all
			}
			highcliff_area = {
				type = all
				country_or_non_sovereign_subject_holds = ROOT
			}
		}
		effect = {
			922 = {
				change_trade_goods = wine
			}
			rotwall_area = {
				add_permanent_claim = ROOT
			}
			arannen_area = {
				add_permanent_claim = ROOT
			}
			gisden_area = {
				add_permanent_claim = ROOT
			}
			hawkfields_area = {
				add_permanent_claim = ROOT
			}
		}
	}
	
	ravenmarch_lions_pass = {
		icon = mission_portuguese_interference
		position = 18
		required_missions = { ravenmarch_businori_tensions }
		
		provinces_to_highlight = {
			area = busilari_straits_area
		}
		trigger = {
			busilari_straits_area = {
				owned_by = ROOT
				type = all
			}
		}
		effect = {
			add_country_modifier = { name = ravenmarch_busilari_straits_tolls duration = 3650 }
		}
	}
	
	ravenmarch_viakkoc = {
		icon = mission_combat_barbary_piracy
		position = 20
		required_missions = { ravenmarch_secure_akan }
		
		provinces_to_highlight = {
			OR = {
				area = ekha_area
				area = middle_akan_area
			}
		}
		trigger = {
			NOT = { exists = U07 }
			ekha_area = {
				owned_by = ROOT
				type = all
			}
			middle_akan_area = {
				owned_by = ROOT
				type = all
			}
			402 = {
				owned_by = ROOT
				has_trade_building_trigger = yes
				province_has_center_of_trade_of_level = 2
			}
		}
		effect = {
			1300 = {
				add_trade_modifier = {
					who = ROOT
					duration = -1
					power = 25
					key = RAVENMARCH_COLONIAL_TRADE
				}
			}
			1504 = {
				add_trade_modifier = {
					who = ROOT
					duration = -1
					power = 20
					key = RAVENMARCH_COLONIAL_TRADE_2
				}
			}
			akan_region = {
				add_permanent_claim = ROOT
			}
		}
	}
}

ravenmarch_2_missions = {
	slot = 2
	generic = no
	ai = yes 
	has_country_shield = yes
	potential = { tag = B48 }
	
	ravenmarch_secure_holdings = {
		icon = mission_white_tower
		position = 2
		required_missions = { ravenmarch_dostans_way ravenmarch_vernham }

		provinces_to_highlight = {
			OR = {
				province_id = 803
				province_id = 800
			}
			NOT = { has_fort_building_trigger = yes }
		}
		
		trigger = {
			803 = {
				owned_by = ROOT
				has_fort_building_trigger = yes
			}
			800 = {
				owned_by = ROOT
				has_fort_building_trigger = yes
			}
		}
		
		effect = {
			add_country_modifier = {
				name = ravenmarch_secured_holdings
				duration = 5475
			}
			803 = {
				add_province_modifier = {
					name = ravenmarch_hill_and_vale
					duration = -1
				}
			}
			800 = {
				add_province_modifier = {
					name = ravenmarch_hill_and_vale
					duration = -1
				}
			}
		}
	}
	
	ravenmarch_offer_refuge = {
		icon = mission_homeless_children
		position = 3
		required_missions = { ravenmarch_secure_holdings ravenmarch_godshield_foothills }

		provinces_to_highlight = { }
		
		trigger = {
			dip_power = 50
			if = {
				limit = { exists = A59 }
				has_spy_network_in = {
					who = A59
					value = 75
				}
			}
			else = {
				any_neighbor_country = {	
					owns = 441
					has_spy_network_from = {
						who = ROOT
						value = 75
					}
				}
			}
		}
		
		effect = {
			every_neighbor_country = {
				limit = { owns = 441 }
				add_spy_network_from = {
					who = ROOT
					value = -75
				}
			}
			add_dip_power = -50
			add_manpower = 2
			capital_scope = {
				add_base_tax = 1
				add_base_production = 1
			}
			random_owned_province = {
				add_base_production = 1
				add_base_manpower = 1
			}
			if = {
				limit = { exists = A59 }
				A59 = {
					random_owned_province = {
						limit = { NOT = { has_province_flag = ravenmarch_refuge } }
						add_base_tax = -1
						add_base_production = -1
						set_province_flag = ravenmarch_refuge
					}
					random_owned_province = {
						limit = { NOT = { has_province_flag = ravenmarch_refuge } }
						add_base_production = -1
						add_base_manpower = -1
						set_province_flag = ravenmarch_refuge
					}
				}
			}
			else = {
				random_province = {
					limit = { region = dostanor_region NOT = { has_province_flag = ravenmarch_refuge } }
					add_base_tax = -1
					add_base_production = -1
					set_province_flag = ravenmarch_refuge
				}
				random_province = {
					limit = { region = dostanor_region NOT = { has_province_flag = ravenmarch_refuge } }
					add_base_production = -1
					add_base_manpower = -1
					set_province_flag = ravenmarch_refuge
				}
			}
		}
	}
	
	ravenmarch_secure_inheritance = {
		icon = king_of_kings
		position = 5
		required_missions = { ravenmarch_dostanor_beyond }
		
		trigger = {
			calc_true_if = {
				all_ally = {
					NOT = {
						OR = {
							capital_scope = { region = south_castanor_region }
							capital_scope = { region = inner_castanor_region }
							capital_scope = { region = west_castanor_region }
						}
					}
				}
				amount = 2
			}
			OR = {
				alliance_with = A59
				is_rival = A59
				NOT = { exists = A59 }
				military_strength = {
					who = A59
					value = 2
				}
			}
		}
		
		effect = {
			increase_legitimacy_large_effect = yes
			add_country_modifier = {
				name = ravenmarch_courtly_politic
				duration = 9125
			}
		}
	}
	
	ravenmarch_light_in_darkness = {
		icon = plague_doctor_training
		position = 6
		required_missions = { ravenmarch_secure_inheritance }
		
		trigger = {
			if = {
				limit = { exists = A59 }
				has_spy_network_in = {
					who = A59
					value = 75
				}
			}
			else = {
				any_neighbor_country = {	
					owns = 441
					has_spy_network_from = {
						who = ROOT
						value = 75
					}
				}
			}
			estate_loyalty = {
				estate = estate_church
				loyalty = 60
			}
			adm_power = 50
			dip_power = 50
		}
		
		effect = {
			add_adm_power = -50
			add_dip_power = -50
			every_neighbor_country = {
				limit = { owns = 441 }
				add_spy_network_from = {
					who = ROOT
					value = -75
				}
			}
			define_advisor = { #order of the ruby scale
				type = inquisitor
				name = "Carmine Judge Cristof"
				skill = 2
				discount = yes
				culture = corvurian
				religion = regent_court
			}
			add_estate_loyalty = {
				estate = estate_church
				loyalty = 5
			}
			if = {
				limit = { 433 = { NOT = { owned_by = ROOT } } }
				433 = {
					add_province_modifier = {
						name = ravenmarch_order_of_ruby_scale_1
						duration = 5475
					}
				}
			}
			else = {
				add_estate_loyalty = {
					estate = estate_church
					loyalty = 5
				}
				433 = {
					add_base_tax = 1
					add_base_production = 1
					add_base_manpower = 1
				}
			}
		}
	}
	
	ravenmarch_new_court = {
		icon = catholic_volunteers
		position = 8
		required_missions = { ravenmarch_corins_might }
		
		trigger = {
			religious_unity = 0.75
			OR = {
				AND = {
					has_idea_group = religious_ideas
					religious_ideas = 5
				}
				OR = {
					theologian = 3
					inquisitor = 3
				}
			}
		}
		
		effect = {
			add_government_reform = ravenmarch_triumvirate_court
			country_event = { id = flavor_ravenmarch.15 }
		}
	}
	
	ravenmarch_dredging_sunken_land = {
		icon = mission_advance_to_the_dnieper
		position = 11
		required_missions = { ravenmarch_bloody_victory }
		
		provinces_to_highlight = {
			region = daravans_folly_region
			NOT = { country_or_non_sovereign_subject_holds = ROOT }
		}
		
		trigger = {
			owns_all_provinces = {
				region = daravans_folly_region
			}
			if = {
				limit = { 
					A59 = {
						is_subject_of = ROOT
					}
				}
				A59 = {
					development_in_provinces = {
						region = daravans_folly_region
						value = 50
					}
				}
			}
			else = {
				development_in_provinces = {
					region = daravans_folly_region
					value = 50
				}
			}
		}
		
		effect = {
			daravans_folly_region = {
				limit = { owned_by = ROOT }
				add_province_modifier = {
					name = ravenmarch_dredging
					duration = 14600
				}
			}
		}
	}
	
	ravenmarch_relics_forefathers = {
		icon = mission_treasure_room
		position = 12
		required_missions = { ravenmarch_dredging_sunken_land }
		
		provinces_to_highlight = {
			OR = {
				province_id = 442
				province_id = 443
				province_id = 446
			}
		}
		
		trigger = {
			any_owned_province = {
				OR = {
					province_id = 442
					province_id = 443
					province_id = 446
				}
				base_tax = 3
				base_production = 3
				base_manpower = 3
				has_manufactory_trigger = yes
			}
		}
		effect = {
			random_owned_province = {
				limit = {
					OR = {
						province_id = 442
						province_id = 443
						province_id = 446
					}
					has_manufactory_trigger = yes
				}
				add_province_modifier = {
					name = ravenmarch_dostanorian_estate_rebuild
					duration = -1
				}
			}
			add_country_modifier = {
				name = ravenmarch_dostanorian_legacy
				duration = 18250
			}
			hidden_effect = {
				country_event = { id = flavor_ravenmarch.18 days = 9125 random = 1825 }
			}
		}
	}
	
	ravenmarch_new_corveld = {
		icon = mission_dominate_genoa
		position = 14
		required_missions = { ravenmarch_nerats_embrace }
		
		provinces_to_highlight = {
			province_id = 447
		}
		
		trigger = {
			owns_core_province = 447
			447 = {
				num_of_times_improved_by_owner = 5
				has_trade_building_trigger = yes
				has_manufactory_trigger = yes
			}
			custom_trigger_tooltip = {
				tooltip = ravenmarch_corveld_restored
				has_global_flag = corveld_restored 
			}
		}
		
		effect = {
			add_dip_power = 100
			add_country_modifier = {
				name = ravenmarch_restored_corveld
				duration = -1
			}
		}
	}
	
	ravenmarch_marshes_to_sea = {
		icon = mission_launch_a_flagship
		position = 15
		required_missions = { ravenmarch_new_corveld }
		
		provinces_to_highlight = {
			OR = {
				AND = {
					region = daravans_folly_region
					NOT = { has_shipyard_building_trigger = yes }
					NOT = {
						ROOT = {
							num_of_owned_provinces_with = {
								value = 4
								region = daravans_folly_region
								has_shipyard_building_trigger = yes
							}
						}
					}
				}
				AND = {
					province_id = 804
					NOT = {
						AND = {
							base_tax = 4
							base_production = 4
							base_manpower = 2
							has_trade_building_trigger = yes
						}
					}
				}
			}
		}
		
		trigger = {
			naval_supplies = 10
			num_of_owned_provinces_with = {
				value = 4
				region = daravans_folly_region
				has_shipyard_building_trigger = yes
			}
			804 = {
				base_tax = 4
				base_production = 4
				base_manpower = 2
				has_trade_building_trigger = yes
			}
		}
		
		effect = {
			803 = {
				add_province_modifier = {
					name = ravenmarch_swamp_road
					duration = -1
				}
			}
			804 = {
				add_province_modifier = {
					name = ravenmarch_swamp_road
					duration = -1
				}
			}
			446 = {
				add_province_modifier = {
					name = ravenmarch_swamp_road
					duration = -1
				}
			}
			450 = {
				add_province_modifier = {
					name = ravenmarch_swamp_road
					duration = -1
				}
			}
			449 = {
				add_province_modifier = {
					name = ravenmarch_swamp_road
					duration = -1
				}
			}
			448 = {
				add_province_modifier = {
					name = ravenmarch_swamp_road
					duration = -1
				}
			}
		}
	}
	
	ravenmarch_dostanor_into_divenhal = {
		icon = mission_galleys_in_port
		position = 16
		required_missions = { ravenmarch_marshes_to_sea }
		
		trigger = {
			navy_size_percentage = 0.5
			num_of_galley = 20
			num_of_transport = 10
		}
		
		effect = {
			add_navy_tradition = 10
			add_yearly_sailors = 1
			highcliff_area = {
				add_permanent_claim = ROOT
			}
			antir_drop_area = {
				add_permanent_claim = ROOT
			}
		}
	}
	
	ravenmarch_businori_tensions = {
		icon = mission_confrontation
		position = 17
		required_missions = { ravenmarch_pawns_on_board ravenmarch_dostanor_into_divenhal }
		
		trigger = {
			if = {
				limit = {
					OR = {
						exists = A29
						exists = A47
					}
				}
				OR = {
					has_spy_network_in = {
						who = A29
						value = 75
					}
					has_spy_network_in = {
						who = A47
						value = 75
					}
				}
			}
			else_if = {
				limit = {
					NOT = { exists = A47 }
					NOT = { exists = A29 }
				}
				OR = {
					any_known_country = {
						any_owned_province = {
							area = isle_of_tef_area
						}
						has_spy_network_from = {
							who = ROOT
							value = 75
						}
					}
					any_known_country = {
						any_owned_province = {
							area = busilari_straits_area
						}
						has_spy_network_from = {
							who = ROOT
							value = 75
						}
					}
				}
			}
		}
		effect = {
			if = {
				limit = {
					has_spy_network_in = {
						who = A29
						value = 75
					}
				}
				add_spy_network_in = {
					who = A29
					value = -50
				}
				busilari_straits_area = {
					add_permanent_claim = ROOT
				}
				lorbet_area = {
					add_permanent_claim = ROOT
				}
			}
			else_if = {
				limit = {
					has_spy_network_in = {
						who = A47
						value = 75
					}
				}
				add_spy_network_in = {
					who = A47
					value = -50
				}
				isle_of_tef_area = {
					add_permanent_claim = ROOT
				}
			}
			else_if = {
				limit = {
					NOT = {
						exists = A29
						exists = A47
					}
				}
				random_known_country = {
					limit = {
						has_spy_network_from = {
							who = ROOT
							value = 75
						}
						busilari_straits_area = {
							owned_by = PREV
						}
					}
					add_spy_network_from = {
						who = ROOT
						value = -50
					}
				}
				busilari_straits_area = {
					add_permanent_claim = ROOT
				}
				lorbet_area = {
					add_permanent_claim = ROOT
				}
			}
			else_if = {
				limit = {
					NOT = {
						exists = A29
						exists = A47
					}
				}
				random_known_country = {
					limit = {
						has_spy_network_from = {
							who = ROOT
							value = 75
						}
						isle_of_tef_area = {
							owned_by = PREV
						}
					}
					add_spy_network_from = {
						who = ROOT
						value = -50
					}
				}
				isle_of_tef_area = {
					add_permanent_claim = ROOT
				}
			}
		}
	}
	
	ravenmarch_tefkoran_gate = {
		icon = mission_sponsor_piracy
		position = 18
		required_missions = { ravenmarch_businori_tensions }
		
		provinces_to_highlight = {
			area = isle_of_tef_area
		}
		trigger = {
			isle_of_tef_area = {
				owned_by = ROOT
				type = all
			}
		}
		effect = {
			oris_area = {
				add_permanent_claim = ROOT
			}
			399 = {
				add_permanent_claim = ROOT
			}
			deshak_area = {
				add_permanent_claim = ROOT
			}
		}
	}
	
	ravenmarch_secure_akan = {
		icon = mission_raid_on_venice
		position = 19
		required_missions = { ravenmarch_lions_pass ravenmarch_tefkoran_gate }
		
		provinces_to_highlight = {
			OR = {
				area = deshak_area
				area = oris_area
				province_id = 399
			}
		}
		trigger = {
			deshak_area = {
				owned_by = ROOT
			}
			oris_area = {
				owned_by = ROOT
			}
			399 = {
				owned_by = ROOT
			}
		}
		effect = {
			hapak_area = {
				add_permanent_claim = ROOT
			}
			ohitsopot_area = {
				add_permanent_claim = ROOT
			}
			middle_akan_area = {
				add_permanent_claim = ROOT
			}
			ekha_area = {
				add_permanent_claim = ROOT
			}
		}
	}
	
	ravenmarch_brrtekuh = {
		icon = mission_conquer_air
		position = 20
		required_missions = { ravenmarch_secure_akan ravenmarch_sway_bordermen }
		
		provinces_to_highlight = {
			OR = {
				area = oris_area
				area = ohitsopot_area
				area = garpix_brrtekuh_area
			}
		}
		trigger = {
			NOT = { exists = U10 }
			oris_area = {
				country_or_non_sovereign_subject_holds = ROOT
				type = all
			}
			ohitsopot_area = {
				country_or_non_sovereign_subject_holds = ROOT
				type = all
			}
			garpix_brrtekuh_area = {
				country_or_non_sovereign_subject_holds = ROOT
				type = all
			}
		}
		effect = {
			add_adm_power = 50
			add_dip_power = 25
			add_mil_power = 25
			add_country_modifier = { name = ravenmarch_into_kheterata duration = 5475 }
		}
	}
	
	ravenmarch_end_gnollish_incursion = {
		icon = mission_control_surat
		position = 21
		required_missions = { ravenmarch_viakkoc ravenmarch_brrtekuh }
		
		provinces_to_highlight = {
			OR = {
				province_id = 6091
				province_id = 6099
			}
		}
		trigger = {
			6091 = {
				has_fort_building_trigger = yes
				has_building = ramparts
				religion = corinite
			}
			6099 = {
				has_fort_building_trigger = yes
				has_building = ramparts
				religion = corinite
			}
			mil_power = 100
		}
		effect = {
			add_mil_power = -100
			add_country_modifier = { name = ravenmarch_salahad_patrols duration = -1 }
			6091 = {
				add_base_manpower = 1
				add_province_modifier = { name = ravenmarch_gnollwards duration = -1 }
			}
			6099 = {
				add_base_manpower = 1
				add_province_modifier = { name = ravenmarch_gnollwards duration = -1 }
			}
		}
	}
}

ravenmarch_3_missions = {
	slot = 3
	generic = no
	ai = yes 
	has_country_shield = yes
	potential = { tag = B48 }
	
	ravenmarch_vernham = {
		icon = defend_the_city
		position = 1
		required_missions = { }

		provinces_to_highlight = {
			area = vernham_area
			NOT = { country_or_non_sovereign_subject_holds = ROOT }
		}
		
		trigger = {
			vernham_area = {
				type = all
				country_or_non_sovereign_subject_holds = ROOT
			}
		}
		
		effect = {
			set_capital = 800
			add_prestige = 10
		}
	}
	
	ravenmarch_old_new = {
		icon = the_great_city_of_buda
		position = 2
		required_missions = { ravenmarch_vernham }
		
		provinces_to_highlight = {
			area = vernham_area
			NOT = { development = 15 }
		}
		
		trigger = {
			vernham_area = {
				type = all
				development = 15
			}
		}
		
		effect = {
			add_country_modifier = {
				name = ravenmarch_new_home
				duration = 9125
			}
		}
	}
	
	ravenmarch_ryalan_grace = {
		icon = mission_marriage
		position = 3
		required_missions = { ravenmarch_old_new }
		
		provinces_to_highlight = {
			area = vernham_area
			NOT = {  has_tax_building_trigger = yes }
		}
		
		trigger = {
			vernham_area = {
				type = all
				has_tax_building_trigger = yes
			}
		}
		
		effect = {
			add_stability_or_adm_power = yes
			capital_scope = {
				if = {
					limit = { NOT = { has_building = cathedral } }
					remove_building = temple
					add_building = cathedral
				}
				else = {
					add_base_tax = 2
				}
			}
		}
	}
	
	ravenmarch_dostanor_beyond = {
		icon = end_the_habsburgs
		position = 4
		required_missions = { ravenmarch_ryalan_grace ravenmarch_silver_shores ravenmarch_offer_refuge }
		
		trigger = {
			stability = 2
			legitimacy_equivalent = 80
			prestige = 50
		}
		
		effect = {
			if = {
				limit = { NOT = { government_rank = 3 } }
				set_government_rank = 2
			}
			else = {
				add_adm_power = 50
				add_stability_or_adm_power = yes
			}
			south_castanor_region = {
				add_permanent_claim = ROOT
			}
			daravans_folly_region = {
				add_permanent_claim = ROOT
			}
		}
	}
	
	ravenmarch_sons_of_the_mire = {
		icon = league_of_the_public_weal
		position = 5
		required_missions = { ravenmarch_dostanor_beyond }
		
		trigger = {
			num_of_cavalry = 10
			mil_power = 75
		}
		effect = {
			add_mil_power = -75
			add_country_modifier = {
				name = ravenmarch_sons_of_mire
				duration = -1
			}
		}
	}
	
	ravenmarch_last_korbarids = {
		icon = mission_mountain_castle
		position = 6
		required_missions = { ravenmarch_sons_of_the_mire }
		
		provinces_to_highlight = {
			province_id = 780
			NOT = { country_or_non_sovereign_subject_holds = ROOT }
		}
		
		trigger = {
			dip_power = 100
			treasury = 100
			780 = {
				country_or_non_sovereign_subject_holds = ROOT
			}
		}
		
		effect = {
			add_dip_power = -100
			add_treasury = -100
			country_event = { id = flavor_ravenmarch.2 days = 5 }
		}
	}
	
	ravenmarch_corins_might = {
		icon = mission_corin
		position = 7
		required_missions = { ravenmarch_light_in_darkness ravenmarch_last_korbarids ravenmarch_a_fresh_start }
		
		trigger = {
			is_religion_enabled = corinite
			OR = {
				AND = {
					religion = regent_court
					OR = {
						has_personal_deity = ryala
						has_personal_deity = nerat
					}
				}
				religion = corinite
			}
		}
		
		effect = {
			if = {
				limit = { is_religion_enabled = corinite religion = regent_court }
				change_religion = corinite
				capital_scope = {
					change_religion = corinite
					add_reform_center = corinite
				}
				random_owned_province = {
					limit = { has_tax_building_trigger = yes NOT = { religion = corinite } }
					change_religion = corinite
				}
				random_owned_province = {
					limit = { has_tax_building_trigger = yes NOT = { religion = corinite } }
					change_religion = corinite
				}
				add_country_modifier = {
					name = conversion_zeal
					duration = 3650
				}
			}
			else = {
				add_stability_or_adm_power = yes
				add_adm_power = 75
				add_dip_power = 75
				add_mil_power = 75
			}
		}
	}
	
	ravenmarch_brothers_in_arms = {
		icon = sav_union_with_naples
		position = 8
		required_missions = { ravenmarch_corins_might }
		
		trigger = {
			OR = {
				alliance_with = B02
				calc_true_if = {
					all_ally = {
						religion = corinite
					}
					amount = 2
				}
			}
		}
		
		effect = {
			add_stability_or_adm_power = yes
			every_ally = {
				limit = { religion = corinite }
				add_opinion = {
					who = ROOT
					modifier = ravenmarch_corinite_comradery
				}
				reverse_add_opinion = {
					who = ROOT
					modifier = ravenmarch_corinite_comradery
				}
				add_trust = {
					who = ROOT
					value = 25
					mutual = yes
				}
			}
		}
	}
	
	ravenmarch_homeward_bound = {
		icon = mission_rb_conquer_the_highlands
		position = 9
		required_missions = { ravenmarch_brothers_in_arms }
		
		trigger = {
			manpower_percentage = 0.75
			if = {
				limit = { 
					any_rival_country = {
						is_emperor = yes
					}
				}
				emperor = {
					has_spy_network_from = {
						who = ROOT
						value = 50
					}
				}
			}
			else = {
				emperor = {
					has_opinion = {
						who = ROOT
						value = 100
					}
				}
			}
			any_neighbor_country = {
				OR = {
					any_owned_province = {
						region = daravans_folly_region
					}
					owns = 447
				}
				OR = {
					NOT = { truce_with = ROOT }
					is_subject_of = ROOT
				}
			}
		}
		effect = {
			if = {
				limit = {
					any_rival_country = { is_emperor = yes }
				}
				emperor = {
					add_spy_network_from = {
						who = ROOT
						value = -50
					}
				}
			}
			440 = {
				add_permanent_claim = ROOT
			}
			427 = {
				add_permanent_claim = ROOT
			}
			428 = {
				add_permanent_claim = ROOT
			}
			431 = {
				add_permanent_claim = ROOT
			}
			custom_tooltip = ravenmarch_folly_attack_tooltip
		}
	}
	
	ravenmarch_bloody_victory = {
		icon = mission_mounted_battle
		position = 10
		required_missions = { ravenmarch_homeward_bound }
		
		provinces_to_highlight = {
			OR = {
				area = north_dreadmire_area
				area = central_dreadmire_area
				province_id = 447
				province_id = 448
				province_id = 445
				province_id = 449
			}
			NOT = { country_or_non_sovereign_subject_holds = ROOT }
		}
		
		trigger = {
			north_dreadmire_area = {
				country_or_non_sovereign_subject_holds = ROOT
				type = all
			}
			central_dreadmire_area = {
				country_or_non_sovereign_subject_holds = ROOT
				type = all
			}
			447 = {
				country_or_non_sovereign_subject_holds = ROOT
			}
			448 = {
				country_or_non_sovereign_subject_holds = ROOT
			}
			445 = {
				country_or_non_sovereign_subject_holds = ROOT
			}
			449 = {
				country_or_non_sovereign_subject_holds = ROOT
			}
		}
		
		effect = {
			add_prestige = 10
			increase_legitimacy_medium_effect = yes
			eastborders_area = {
				add_permanent_claim = ROOT
			}
			west_overmarch_area = {
				add_permanent_claim = ROOT
			}
			east_overmarch_area = {
				add_permanent_claim = ROOT
			}
		}
	}
	
	ravenmarch_smite_demons = {
		icon = mission_skull
		position = 11
		required_missions = { ravenmarch_bloody_victory }
		
		provinces_to_highlight = {
			OR = {
				area = north_dreadmire_area
				area = central_dreadmire_area
				area = flooded_coast_area
			}
			OR = {
				has_gnollish_minority_trigger = yes
				has_gnollish_majority_trigger = yes
			}
		}
		
		trigger = {
			daravans_folly_region = {
				type = all
				country_or_non_sovereign_subject_holds = ROOT
				religion = corinite
			}
			NOT = {
				any_owned_province = {
					region = daravans_folly_region
					OR = {
						has_gnollish_minority_trigger = yes
						has_gnollish_majority_trigger = yes
					}
				}
			}
		}
		
		effect = {
			add_stability_or_adm_power = yes
			daravans_folly_region = {
				limit = { owned_by = ROOT }
				add_province_modifier = {
					name = ravenmarch_demons_expelled
					duration = 9125
				}
			}
		}
	}
	
	ravenmarch_lifting_veil = {
		icon = mission_diplomacy_missive
		position = 12
		required_missions = { ravenmarch_smite_demons }
		
		trigger = {
			if = {
				limit = { 
					exists = A59
					NOT = { A59 = { is_subject_of = ROOT } }
					is_emperor = no
					hre_size = 1
				}
				
				has_spy_network_in = {
					who = A59
					value = 50
				}
				emperor = {
					has_spy_network_from = {
						who = ROOT
						value = 50
					}
				}
			}
			else_if = {
				limit = { 
					exists = A59
					NOT = { A59 = { is_subject_of = ROOT } }
					is_emperor = yes
					hre_size = 1
				}
				
				dip_power = 50
			}
			else_if = {
				limit = {
					A59 = {
						is_subject_of = ROOT
					}
					is_emperor = no
					hre_size = 1
				}
				reverse_has_opinion = {
					who = A59
					value = 100
				}
				A59 = {
					NOT = { liberty_desire = 45 }
				}
				emperor = {
					has_spy_network_from = {
						who = ROOT
						value = 50
					}
				}
			}
			else_if = {
				limit = {
					A59 = {
						is_subject_of = ROOT
					}
					is_emperor = yes
					hre_size = 1
				}
				reverse_has_opinion = {
					who = A59
					value = 100
				}
				A59 = {
					NOT = { liberty_desire = 45 }
				}
			}
			else_if = {
				limit = { 
					441 = { country_or_non_sovereign_subject_holds = ROOT } 
					is_emperor = no
					hre_size = 1
				}
				emperor = {
					has_spy_network_from = {
						who = ROOT
						value = 50
					}
				}
			}
			else_if = {
				limit = { 
					441 = { country_or_non_sovereign_subject_holds = ROOT } 
					is_emperor = yes
					hre_size = 1
				}
				dip_power = 50
			}
			else_if = {
				limit = { NOT = { hre_size = 1 } }
				dip_power = 25
			}
		}
		
		effect = {
			if = {
				limit = {
					exists = A59
					NOT = { A59 = { is_subject_of = ROOT } }
				}
				add_casus_belli = {
					target = A59
					type = cb_annex
					months = 24
				}
			}
			else_if = {
				limit = {	A59 = { is_subject_of = ROOT } }
				add_liberty_desire = -10
			}
			else_if = {
				limit = { 
					NOT = { exists = A59 }
					owns_or_non_sovereign_subject_of = 441
				}
				
				add_stability_or_adm_power = yes
				add_estate_loyalty = {
					estate = estate_church
					loyalty = 5
				}
			}
			else_if = {
				limit = { 
					441 = { country_or_non_sovereign_subject_holds = ROOT }
					is_emperor = no
				}
				add_country_modifier = { name = ravenmarch_subjugate_princes duration = 5475 }
			}
			else_if = {
				limit = { is_emperor = yes }
				add_dip_power = -50
				add_country_modifier = { name = ravenmarch_escanni_emperor duration = 5475 }
			}
			else_if = {
				limit = { NOT = { hre_size = 1 } }
				add_dip_power = -25
				add_country_modifier = { name = ravenmarch_subjugate_princes duration = 5475 }
			}
		}
	}
	
	ravenmarch_nerats_embrace = {
		icon = mission_dancing_with_dead
		position = 13
		required_missions = {
			ravenmarch_lifting_veil
			ravenmarch_relics_forefathers
			ravenmarch_offer_repentance
		}
		
		provinces_to_highlight = {
			NOT = { A59 = { is_subject_of = ROOT } }
			region = dostanor_region
			NOT = { country_or_non_sovereign_subject_holds = ROOT }
		}
		
		trigger = {
			OR = {
				A59 = {
					is_subject_of = ROOT
				}
				AND = {
					NOT = { exists = A59 }
					num_of_provinces_owned_or_owned_by_non_sovereign_subjects_with = {
						region = dostanor_region
						value = 8
					}
				}
			}
		}
		
		effect = {
			country_event = { id = flavor_ravenmarch.21 }
			add_prestige = 25
			dostanor_region = {
				add_core = ROOT
			}
		}
	}
	
	ravenmarch_lingering_darkness = {
		icon = mission_ghost_town
		position = 14
		required_missions = {
			ravenmarch_nerats_embrace
		}
		
		trigger = {
			adm_power = 100
			dip_power = 100
			mil_power = 100
			OR = {
				theologian = 3
				inquisitor = 3
				spymaster = 3
			}
		}
		
		effect = {
			add_adm_power = -100
			add_dip_power = -100
			add_mil_power = -100
			433 = {
				remove_province_modifier = ravenmarch_order_of_ruby_scale_1
			}
			central_corvuria_area = {
				add_province_modifier = {
					name = ravenmarch_order_of_ruby_scale_2
					duration = 7300
				}
			}
			hidden_effect = {
				set_country_flag = has_vampires_estate
				country_event = { id = flavor_ravenmarch.17 days = 2 }
			}
			custom_tooltip = ravenmarch_vampire_gain_estate
		}
	}
	
	ravenmarch_lady_dusken_hair = {
		icon = mission_thirsting_queen
		position = 16
		required_missions = {
			ravenmarch_lingering_darkness
		}
		
		provinces_to_highlight = {
			province_id = 444
			NOT = {
				AND = {
					owned_by = ROOT
					has_fort_building_trigger = yes
					has_tax_building_trigger = yes
				}
			}
		}
		
		trigger = {
			444 = {
				owned_by = ROOT
				has_fort_building_trigger = yes
				has_tax_building_trigger = yes
			}
		}
		
		effect = {
			444 = {
				add_base_tax = 1
				add_base_production = 1
				add_base_manpower = 2
				add_province_modifier = {
					name = ravenmarch_fennfort_gaol
					duration = -1
				}
			}
			hidden_effect = {
				remove_estate_privilege = estate_vampires_organization_bloody_aristocracy
				set_estate_privilege = estate_vampires_organization_ladys_birds
			}
			custom_tooltip = ravenmarch_ladys_birds
		}
	}
	
	ravenmarch_revive_flooded_coast_trade = {
		icon = sources_of_trade
		position = 17
		required_missions = { ravenmarch_lady_dusken_hair ravenmarch_dostanor_into_divenhal ravenmarch_beacon_of_crusaders }
		
		trigger = {
			1303 = {
				is_strongest_trade_power = ROOT
			}
		}
		effect = {
			add_mercantilism = 5
		}
	}
	
	ravenmarch_trade_by_other_means = {
		icon = crusader_fleet
		position = 18
		required_missions = { ravenmarch_revive_flooded_coast_trade }
		
		trigger = {
			if = {
				limit = {
					NOT = {
						1296 = {
							is_strongest_trade_power = ROOT
						}
					}
				}
				any_known_country = {
					1296 = {
						is_strongest_trade_power = PREV
					}
					has_spy_network_from = {
						who = ROOT
						value = 75
					}
				}
			}
			else = {
				1296 = {
					trade_share = {
						country = ROOT
						share = 50
					}
				}
			}
		}
		effect = {
			add_dip_power = 50
			add_country_modifier = { name = ravenmarch_divenhal_contacts duration = 9125 }
		}
	}
	
	ravenmarch_sway_bordermen = {
		icon = mission_monarch_diplomacy
		position = 19
		required_missions = { ravenmarch_trade_by_other_means }
		
		trigger = {
			if = {
				limit = {
					any_known_country = {
						capital_scope = { region = the_borders_region }
						OR = {
							is_emperor = yes
							is_great_power = yes
							total_development = 150
						}
					}
				}
				any_known_country = {
					capital_scope = { region = the_borders_region }
					OR = {
						is_emperor = yes
						is_great_power = yes
						total_development = 150
					}
					has_spy_network_from = {
						who = ROOT
						value = 99
					}
				}
			}
		}
		effect = {
			add_country_modifier = { name = ravenmarch_imperial_whispers duration = 9125 }
		}
	}
	
	ravenmarch_gilded_sea = {
		icon = the_shape_of_trades_to_come
		position = 20
		required_missions = { ravenmarch_sway_bordermen }
		
		trigger = {
			1296 = {
				is_strongest_trade_power = ROOT
			}
			navy_size = 100
		}
		effect = {
			add_mercantilism = 5
			1270 = {
				add_trade_modifier = {
					who = ROOT
					duration = -1
					power = 15
					key = RAVENMARCH_EASTERN_TRADE
				}
			}
		}
	}
	
	ravenmarch_korbarid_palaces = {
		icon = explore_caribbean
		position = 21
		required_missions = { ravenmarch_gilded_sea }
		
		trigger = {
			capital_scope = {
				development = 40
				NOT = { num_free_building_slots = 1 }
			}
			447 = {
				has_manufactory_trigger = yes
				development = 30
			}
			433 = {
				has_manufactory_trigger = yes
				development = 30
			}
			808 = {
				has_manufactory_trigger = yes
				development = 30
			}
			num_of_owned_provinces_with = {
				OR = {
					region = dostanor_region
					region = daravans_folly_region
					region = south_castanor_region
				}
				has_manufactory_trigger = yes
				value = 25
			}
			num_of_owned_provinces_with = {
				OR = {
					region = dostanor_region
					region = daravans_folly_region
					region = south_castanor_region
				}
				province_has_center_of_trade_of_level = 3
				value = 5
			}
		}
		effect = {
			add_country_modifier = { name = ravenmarch_heartland_reborn duration = -1 }
			if = {
				limit = { capital_scope = { is_prosperous = no } }
				capital_scope = {
					add_prosperity = 100
				}
			}
			else = {
				capital_scope = {
					add_base_tax = 1
					add_base_production = 1
					add_base_manpower = 1
				}
			}
		}
	}
	
	ravenmarch_corins_peace = {
		icon = imperial_ascendancy
		position = 22
		required_missions = { ravenmarch_end_gnollish_incursion ravenmarch_korbarid_palaces ravenmarch_protected_koroshesh }
		
		trigger = {
			1296 = {
				highest_value_trade_node = yes
				is_strongest_trade_power = ROOT
			}
			num_of_provinces_owned_or_owned_by_non_sovereign_subjects_with = {
				OR = {
					superregion = salahad_superregion
					superregion = bulwar_superregion
				}
				value = 100
			}
		}
		effect = {
			add_country_modifier = { name = ravenmarch_corins_peace duration = -1 }
			add_adm_power = 100
			add_dip_power = 100
			add_mil_power = 100
		}
	}
}

ravenmarch_4_missions = {
	slot = 4
	generic = no
	ai = yes 
	has_country_shield = yes
	potential = { tag = B48 }
	
	ravenmarch_broken_blade = {
		icon = unite_the_realm
		position = 2
		required_missions = { ravenmarch_vernham ravenmarch_forests_edge }
		
		provinces_to_highlight = {
			area = blademarch_area
			NOT = { country_or_non_sovereign_subject_holds = ROOT }
		}
		
		trigger = {
			blademarch_area = {
				country_or_non_sovereign_subject_holds = ROOT
				type = all
			}
		}
		
		effect = {
			add_prestige = 5
			add_mil_power = 25
			oudeben_area = {
				add_permanent_claim = ROOT
			}
			themin_area = {
				add_permanent_claim = ROOT
			}
		}
	}
	
	ravenmarch_silver_shores = {
		icon = invest_in_the_rich_trades
		position = 3
		required_missions = { ravenmarch_broken_blade ravenmarch_primeval_traps }
		
		provinces_to_highlight = {
			OR = {
				area = oudmerewood_area
				area = oudeben_area
				area = themin_area
			}
			NOT = { country_or_non_sovereign_subject_holds = ROOT }
		}
		
		trigger = {
			oudmerewood_area = {
				type = all
				country_or_non_sovereign_subject_holds = ROOT
			}
			oudeben_area = {
				type = all
				country_or_non_sovereign_subject_holds = ROOT
			}
			themin_area = {
				type = all
				country_or_non_sovereign_subject_holds = ROOT
			}
		}
		
		effect = {
			add_adm_power = 75
			add_dip_power = 25
			add_mil_power = 25
		}
	}
	
	ravenmarch_continuing_advance = {
		icon = mission_greentide
		position = 5
		required_missions = { ravenmarch_dostanor_beyond }
		
		provinces_to_highlight = {
			region = south_castanor_region
			owner = { is_monstrous_horde = yes }
		}
		
		trigger = {
			custom_trigger_tooltip = {
				tooltip = ravenmarch_continuing_advance_tooltip
				OR = {
					check_variable = { 
						which = nbRavenWon 
						value = 8
					}
					south_castanor_region = {
						type = all
						NOT = { owner = { is_monstrous_horde = yes } }
					}
				}
			}
		}
		effect = {
			add_country_modifier = {
				name = ravenmarch_late_greentide
				duration = 7300
			}
		}
	}
	
	ravenmarch_a_fresh_start = {
		icon = mission_green_village
		position = 6
		required_missions = { ravenmarch_continuing_advance }
		
		provinces_to_highlight = {
			OR = {
				area = escerfork_area
				area = medirleigh_area
				area = humacvord_area
			}
			NOT = { owned_by = ROOT }
		}
		
		trigger = {
			escerfork_area = {
				owned_by = ROOT
				type = all
			}
			medirleigh_area = {
				owned_by = ROOT
				type = all
			}
			humacvord_area = {
				owned_by = ROOT
			}
			num_of_provinces_owned_or_owned_by_non_sovereign_subjects_with = {
				OR = {
					area = medirleigh_area
					area = escerfork_area
					area = humacvord_area
				}
				has_manufactory_trigger = yes
				value = 2
			}
		}
		
		effect = {
			add_country_modifier = {
				name = ravenmarch_nur_baldostan
				duration = 9125
			}
			custom_tooltip = ravenmarch_fresh_start
			hidden_effect = {
				every_owned_province = {
					limit = { 
						has_manufactory_trigger = yes
						OR = {
							area = medirleigh_area
							area = escerfork_area
							area = humacvord_area
						}
					}
					add_base_tax = 1
					add_base_production = 1
					add_base_manpower = 1
					add_province_modifier = {
						name = ravenmarch_borderland_peasants
						duration = 7300
					}
				}
			}
		}
	}
	
	ravenmarch_woodmarck_forge = {
		icon = mission_smith
		position = 8
		required_missions = { ravenmarch_corins_might }
		
		provinces_to_highlight = {
			province_id = 802
			NOT = {
				AND = {
					base_production = 8
					has_production_building_trigger = yes
				}
			}
		}
		
		trigger = {
			802 = {
				base_production = 8
				has_production_building_trigger = yes
			}
		}
		
		effect = {
			if = {
				limit = { 802 = { trade_goods = iron } }
				add_dip_power = 50
				802 = {
					add_base_production = 2
				}
			}
			else = {
				802 = {
					change_trade_goods = iron
				}
			}
			add_country_modifier = {
				name = ravenmarch_woodmarck_iron
				duration = 5475
			}
		}
	}
	
	ravenmarch_squatters_survivors = {
		icon = new_pilings
		position = 11
		required_missions = { ravenmarch_bloody_victory }
		
		provinces_to_highlight = {
			OR = {
				area = west_overmarch_area
				area = east_overmarch_area
				province_id = 451
			}
			NOT = { owned_by = ROOT }
		}
		
		trigger = {
			west_overmarch_area = {
				type = all
				country_or_non_sovereign_subject_holds = ROOT
			}
			east_overmarch_area = {
				type = all
				country_or_non_sovereign_subject_holds = ROOT
			}
			451 = {
				country_or_non_sovereign_subject_holds = ROOT
			}
		}
		
		effect = {
			south_overmarch_area = {
				add_permanent_claim = ROOT
			}
			crathanor_area = {
				add_permanent_claim = ROOT
			}
		}
	}
	
	ravenmarch_offer_repentance = {
		icon = support_the_orders
		position = 12
		required_missions = { ravenmarch_squatters_survivors }
		
		provinces_to_highlight = {
			province_id = 451
			NOT = {
				AND = {
					owned_by = ROOT
					has_tax_building_trigger = yes
					has_courthouse_building_trigger = yes
					religion = corinite
					NOT = { local_autonomy = 20 }
					NOT = { unrest = 5 }
				}
			}
		}
		
		trigger = {
			451 = {
				owned_by = ROOT
				has_tax_building_trigger = yes
				has_courthouse_building_trigger = yes
				religion = corinite
				NOT = { local_autonomy = 20 }
				NOT = { unrest = 5 }
			}
		}
		effect = {
			451 = {
				add_province_modifier = {
					name = ravenmarch_nathalairey_corruption
					duration = -1
				}
			}
			add_corruption = -1
		}
	}
	
	ravenmarch_over_marches = {
		icon = claim_the_borderlands
		position = 14
		required_missions = { ravenmarch_nerats_embrace }
		
		provinces_to_highlight = {
			OR = {
				area = south_overmarch_area
				area = crathanor_area
			}
		}
		trigger = {
			south_overmarch_area = {
				country_or_non_sovereign_subject_holds = ROOT
				type = all
			}
			crathanor_area = {
				country_or_non_sovereign_subject_holds = ROOT
				type = all
			}
		}
		effect = {
			reuyel_area = {
				add_permanent_claim = ROOT
			}
		}
	}
	
	ravenmarch_mountain_of_jet = {
		icon = mission_riches_of_golconda
		position = 15
		required_missions = { ravenmarch_over_marches }
		
		provinces_to_highlight = {
			province_id = 452
		}
		trigger = {
			452 = {
				is_core = ROOT
				has_production_building_trigger = yes
				base_production = 6
				NOT = { has_construction = building }
			}
		}
		effect = {
			if = {
				limit = {
					452 = { has_manufactory_trigger = no }
				}
				452 = {
					add_building_construction = {
						building = mills
						speed = 0.5
						cost = 0.25
					}
				}
			}
			else = {
				add_years_of_owned_provinces_production_income = {
					years = 5
					trigger = {
						trade_goods = gems
						province_is_on_an_island = yes
						region = bahar_region
					}
				}
			}
		}
	}
	
	ravenmarch_beacon_of_crusaders = {
		icon = mission_conquer_alexandria
		position = 16
		required_missions = { ravenmarch_mountain_of_jet }
		
		provinces_to_highlight = {
			province_id = 581
		}
		trigger = {
			581 = {
				is_core = ROOT
				development = 10
				has_coast_defense_building_trigger = yes
				has_dock_building_trigger = yes
			}
		}
		effect = {
			add_country_modifier = { name = ravenmarch_beacon_of_crusaders duration = 18250 }
		}
	}
	
	ravenmarch_kingdom_of_bahar = {
		icon = mission_imperial_cities
		position = 17
		required_missions = { ravenmarch_lady_dusken_hair ravenmarch_beacon_of_crusaders ravenmarch_contain_exodus }
		
		provinces_to_highlight = {
			region = bahar_region
		}
		trigger = {
			num_of_provinces_owned_or_owned_by_non_sovereign_subjects_with = {
				region = bahar_region
				value = 20
			}
			536 = {
				country_or_non_sovereign_subject_holds = ROOT
			}
		}
		effect = {
			bahar_region = {
				add_permanent_claim = ROOT
			}
			inner_drolas_area = {
				add_permanent_claim = ROOT
			}
			outer_drolas_area = {
				add_permanent_claim = ROOT
			}
		}
	}
	
	ravenmarch_hub_of_pirates = {
		icon = mission_corsairs_of_the_north_sea
		position = 18
		required_missions = { ravenmarch_kingdom_of_bahar }
		
		provinces_to_highlight = {
			OR = {
				area = inner_drolas_area
				area = outer_drolas_area
			}
		}
		trigger = {
			inner_drolas_area = {
				country_or_non_sovereign_subject_holds = ROOT
			}
			outer_drolas_area = {
				country_or_non_sovereign_subject_holds = ROOT
			}
			580 = {
				country_or_non_sovereign_subject_holds = ROOT
				has_coast_defense_building_trigger = yes
			}
		}
		effect = {
			add_yearly_sailors = 1
			lower_brasan_area = {
				add_permanent_claim = ROOT
			}
			medurubar_area = {
				add_permanent_claim = ROOT
			}
			upper_brasan_area = {
				add_permanent_claim = ROOT
			}
		}
	}
	
	ravenmarch_brasan = {
		icon = mission_occupy_alexandria
		position = 19
		required_missions = { ravenmarch_hub_of_pirates ravenmarch_combating_sun_cult }
		
		provinces_to_highlight = {
			OR = {
				area = lower_brasan_area
				area = medurubar_area
				area = upper_brasan_area
			}
		}
		trigger = {
			565 = {
				country_or_non_sovereign_subject_holds = ROOT
			}
			num_of_provinces_owned_or_owned_by_non_sovereign_subjects_with = {
				OR = {
					area = lower_brasan_area
					area = medurubar_area
					area = upper_brasan_area
				}
				value = 5
			}
		}
		effect = {
			elizna_area = {
				add_permanent_claim = ROOT
			}
			ibtat_axast_area = {
				add_permanent_claim = ROOT
			}
			sur_mountains_area = {
				add_permanent_claim = ROOT
			}
			if = {
				limit = {
					NOT = { exists = F24 }
				}
				create_vassal = F24
				F24 = {
					change_religion = corinite
					add_country_modifier = { name = ravenmarch_bulwar_salahad_march duration = -1 }
				}
				create_march = F24
			}
			else_if = {
				limit = {
					F24 = {
						is_subject_of = ROOT
					}
				}
				F24 = {
					add_liberty_desire = -10
					change_religion = corinite
					add_country_modifier = { name = ravenmarch_bulwar_salahad_march duration = -1 }
				}
				create_march = F32
			}
			else_if = {
				limit = {
					F24 = {
						exists = yes
						NOT = { is_subject_of = ROOT }
					}
					F32 = {
						exists = yes
						is_subject_of = ROOT
					}
				}
				every_owned_province = {
					limit = {
						OR = {
							area = lower_brasan_area
							area = medurubar_area
							area = upper_brasan_area
						}
					}
					cede_province = F32
					F32 = {
						add_liberty_desire = -10
						change_religion = corinite
						add_country_modifier = { name = ravenmarch_bulwar_salahad_march duration = -1 }
					}
				}
				create_march = F32
			}
			else_if = {
				limit = {
					F24 = {
						exists = yes
						NOT = { is_subject_of = ROOT }
					}
					F32 = {
						exists = no
					}
				}
				create_vassal = F32
				every_owned_province = {
					limit = {
						OR = {
							area = lower_brasan_area
							area = medurubar_area
							area = upper_brasan_area
						}
					}
					cede_province = F32
					F32 = {
						add_liberty_desire = -10
						change_religion = corinite
						add_country_modifier = { name = ravenmarch_bulwar_salahad_march duration = -1 }
					}
				}
				create_march = F32
			}
		}
	}
	
	ravenmarch_ancestral_strife = {
		icon = the_latin_empire
		position = 20
		required_missions = { ravenmarch_sway_bordermen ravenmarch_brasan }
		
		provinces_to_highlight = {
			superregion = bulwar_superregion
		}
		trigger = {
			num_of_provinces_owned_or_owned_by_non_sovereign_subjects_with = {
				superregion = bulwar_superregion
				religion = corinite
				value = 40
			}
		}
		effect = {
			add_country_modifier = { name = ravenmarch_triumph_over_sun duration = -1 }
			hidden_effect = {
				hidden_effect = {
					coast_of_tears_area = {
						add_core = L28
					}
					hitputtiushesh_area = {
						add_core = L28
					}
				}
			}
		}
	}
	
	ravenmarch_protected_koroshesh = {
		icon = fortify_malta
		position = 21
		required_missions = { ravenmarch_ancestral_strife ravenmarch_elizna }
		
		provinces_to_highlight = {
			OR = {
				area = coast_of_tears_area
				area = hitputtiushesh_area
			}
		}
		trigger = {
			463 = {
				country_or_non_sovereign_subject_holds = ROOT
			}
			num_of_provinces_owned_or_owned_by_non_sovereign_subjects_with = {
				OR = {
					area = coast_of_tears_area
					area = hitputtiushesh_area
				}
				value = 5
			}
		}
		effect = {
			if = {
				limit = {
					NOT = { exists = L28 }
				}
				create_vassal = L28
				L28 = {
					change_religion = corinite
					add_country_modifier = { name = ravenmarch_bulwar_salahad_march duration = -1 }
				}
				create_march = L28
			}
			else_if = {
				limit = {
					L28 = {
						is_subject_of = ROOT
					}
				}
				L28 = {
					add_liberty_desire = -10
					change_religion = corinite
					add_country_modifier = { name = ravenmarch_bulwar_salahad_march duration = -1 }
				}
				create_march = L28
			}
			else_if = {
				limit = {
					L28 = {
						exists = yes
						NOT = { is_subject_of = ROOT }
					}
				}
				463 = {
					add_building = fort_15th
					add_province_modifier = { name = ravenmarch_koroshesh_guard duration = -1 }
				}
			}
		}
	}
	
}

ravenmarch_5_missions = {
	slot = 5
	generic = no
	ai = yes 
	has_country_shield = yes
	potential = { tag = B48 }
	
	ravenmarch_forests_edge = {
		icon = mission_misty_forest
		position = 1
		required_missions = { }
		
		provinces_to_highlight = {
			OR = {
				area = clovenwood_area
				area = beastgrave_area
				area = banesfork_area
			}
			NOT = { country_or_non_sovereign_subject_holds = ROOT }
		}
		
		trigger = {
			clovenwood_area = {
				type = all
				country_or_non_sovereign_subject_holds = ROOT
			}
			beastgrave_area = {
				type = all
				country_or_non_sovereign_subject_holds = ROOT
			}
			banesfork_area = {
				type = all
				country_or_non_sovereign_subject_holds = ROOT
			}
		}
		
		effect = {
			blademarch_area = {
				add_permanent_claim = ROOT
			}
			swapstoke_area = {
				add_permanent_claim = ROOT
			}
		}
	}
	
	ravenmarch_primeval_traps = {
		icon = mission_verdant_secret
		position = 2
		required_missions = { ravenmarch_forests_edge }
		
		trigger = {
			num_of_owned_provinces_with = {
				value = 3
				OR = {
					trade_goods = fur
					base_production = 5
				}
				OR = {
					has_terrain = forest
					has_terrain = woods
				}
			}
		}
		
		effect = {
			add_country_modifier = {
				name = ravenmarch_deepwoods_furs
				duration = 7300
			}
			random_owned_province = {
				limit = {
					NOT = { trade_goods = fur }
					NOT = { trade_goods = gold }
					NOT = { trade_goods = damestear }
					NOT = { trade_goods = cloth }
					NOT = { trade_goods = paper }
					NOT = { trade_goods = gems }
					OR = {
						has_terrain = forest
						has_terrain = woods
					}
				}
				change_trade_goods = fur
			}
		}
	}
	
	ravenmarch_completing_mission = {
		icon = shift_the_balance
		position = 6
		required_missions = { ravenmarch_continuing_advance }
		
		provinces_to_highlight = {
			region = south_castanor_region
			owner = { is_monstrous_horde = yes }
		}
		
		trigger = {
			custom_trigger_tooltip = {
				tooltip = ravenmarch_completing_mission_tooltip
				south_castanor_region = {
					type = all
					NOT = { owner = { is_monstrous_horde = yes } }
				}
			}
		}
		
		effect = {
			add_army_tradition = 15
			add_mil_power = 100
		}
	}
	
	ravenmarch_no_longer_meek = {
		icon = gory_to_the_black_army
		position = 7
		required_missions = { ravenmarch_completing_mission }
		
		provinces_to_highlight = {
			area = marrhold_area
			NOT = { owned_by = ROOT }
		}
		
		trigger = {
			army_tradition = 50
			army_professionalism = 0.4
			marrhold_area = {
				owned_by = ROOT
				type = all
			}
		}
		
		effect = {
			add_country_modifier = {
				name = ravenmarch_festival_of_arms
				duration = 18250
			}
		}
	}
	
	ravenmarch_love_thy_neighbor = {
		icon = mission_native_reductions
		position = 9
		required_missions = { }
		
		trigger = {
			calc_true_if = {
				OR = {
					medium_tolerance_orcish_race_trigger = yes
					high_tolerance_orcish_race_trigger = yes
				}
				OR = {
					medium_tolerance_goblin_race_trigger = yes
					high_tolerance_goblin_race_trigger = yes
				}
				OR = {
					medium_tolerance_half_orcish_race_trigger = yes
					high_tolerance_half_orcish_race_trigger = yes
				}
				amount = 2
			}
		}
		
		effect = {
			if = {
				limit = {
					OR = {
						medium_tolerance_orcish_race_trigger = yes
						high_tolerance_orcish_race_trigger = yes
					}
				}
				capital_scope = { add_orcish_minority_size_effect = yes }
				medium_increase_of_orcish_tolerance_effect = yes
				add_mil_power = 50
			}
			if = {
				limit = {
					OR = {
						medium_tolerance_goblin_race_trigger = yes
						high_tolerance_goblin_race_trigger = yes
					}
				}
				capital_scope = { add_goblin_minority_size_effect = yes }
				medium_increase_of_goblin_tolerance_effect = yes
				add_dip_power = 50
			}
			if = {
				limit = {
					OR = {
						medium_tolerance_half_orcish_race_trigger = yes
						high_tolerance_half_orcish_race_trigger = yes
					}
				}
				capital_scope = { add_half_orcish_minority_size_effect = yes }
				medium_increase_of_half_orcish_tolerance_effect = yes
				add_adm_power = 50
			}
		}
	}
	
	#ravenmarch_ = { #something about ending orcish slavery?
	#
	#}
	
	ravenmarch_ourdian_comradery = {
		icon = moravian_arms
		position = 12
		required_missions = { ravenmarch_squatters_survivors }
		
		provinces_to_highlight = {
			province_id = 510
			NOT = {
				AND = {
					has_province_modifier = castanorian_citadel
					has_fort_building_trigger = yes
					has_manufactory_trigger = yes
					country_or_non_sovereign_subject_holds = ROOT
				}
			}
		}
		
		trigger = {
			510 = {
				has_province_modifier = castanorian_citadel
				has_fort_building_trigger = yes
				has_manufactory_trigger = yes
				country_or_non_sovereign_subject_holds = ROOT
			}
			if = {
				limit = {
					any_owned_province = {
						culture = ourdi
					}
				}
				accepted_culture = ourdi
			}
			else = {
				
			}
		}
		
		effect = {
			add_country_modifier = {
				name = ravenmarch_ourdian_comradery
				duration = -1
			}
			510 = {
				add_base_tax = 2
				add_base_production = 2
				add_base_manpower = 2
			}
			west_overmarch_area = {
				limit = { owned_by = ROOT }
				change_culture = ourdi
				add_province_modifier = {
					name = ravenmarch_ourdian_buff
					duration = -1
				}
			}
			east_overmarch_area = {
				limit = { owned_by = ROOT }
				change_culture = ourdi
				add_province_modifier = {
					name = ravenmarch_ourdian_buff
					duration = -1
				}
			}
		}
	}
	
	ravenmarch_pretender_republic = {
		icon = mission_portuguese_interference
		position = 15
		required_missions = { ravenmarch_over_marches }
		
		provinces_to_highlight = {
			area = reuyel_area
		}
		trigger = {
			reuyel_area = {
				country_or_non_sovereign_subject_holds = ROOT
				type = all
			}
		}
		effect = {
			add_stability_or_adm_power = yes
			medbahar_area = {
				add_permanent_claim = ROOT
			}
		}
	}
	
	ravenmarch_contain_exodus = {
		icon = mission_potosi_silver
		position = 16
		required_missions = { ravenmarch_pretender_republic }
		
		provinces_to_highlight = {
			area = medbahar_area
		}
		trigger = {
			medbahar_area = {
				country_or_non_sovereign_subject_holds = ROOT
				type = all
			}
			U14 = {
				exists = no
			}
		}
		effect = {
			tungr_mountains_area = {
				add_permanent_claim = ROOT
			}
			magairous_area = {
				add_permanent_claim = ROOT
			}
			aqatbahar_area = {
				add_permanent_claim = ROOT
			}
			fajabahar_area = {
				add_permanent_claim = ROOT
			}
		}
	}
	
	ravenmarch_combating_sun_cult = {
		icon = mission_desert_pilgrim
		position = 18
		required_missions = { ravenmarch_kingdom_of_bahar }
		
		trigger = {
			treasury = 1000
			adm_power = 50
			dip_power = 50
			num_of_provinces_owned_or_owned_by_non_sovereign_subjects_with = {
				superregion = bulwar_superregion
				religion = corinite
				value = 10
			}
		}
		effect = {
			add_treasury = -1000
			add_adm_power = -50
			add_dip_power = -50
			add_country_modifier = { name = ravenmarch_outreach_lost_in_darkness duration = 9125 }
		}
	}
	
	ravenmarch_elizna = {
		icon = reclaim_the_aegean
		position = 20
		required_missions = { ravenmarch_brasan }
		
		provinces_to_highlight = {
			OR = {
				area = elizna_area
				area = ibtat_axast_area
			}
		}
		trigger = {
			elizna_area = {
				country_or_non_sovereign_subject_holds = ROOT
				type = all
			}
			ibtat_axast_area = {
				country_or_non_sovereign_subject_holds = ROOT
				type = all
			}
		}
		effect = {
			add_navy_tradition = 15
			add_adm_power = 50
			add_dip_power = 50
			add_mil_power = 50
			coast_of_tears_area = {
				add_permanent_claim = ROOT
			}
			hitputtiushesh_area = {
				add_permanent_claim = ROOT
			}
		}
	}
}